account_length,international_plan,number_vmail_messages,total_intl_minutes,total_intl_calls,number_customer_service_calls,total_minutes,total_calls,area_code_area_code_408,area_code_area_code_415,area_code_area_code_510,state_other,avg_mt_charge,avg_call_charge,avg_intl_call_charge,both_plans
92,0,0,9.9,8,1,619.7,347,0,0,1,1,0.6766304347826086,0.17939481268011528,0.33375,0
117,0,0,10.6,6,4,498.2,352,0,0,1,1,0.4586324786324786,0.1524431818181818,0.4766666666666666,0
184,1,0,5.0,10,2,512.5999999999999,326,0,0,1,1,0.30532608695652175,0.1723312883435583,0.135,0
82,0,0,6.9,4,2,545.3,270,0,1,0,1,0.7770731707317072,0.23599999999999996,0.465,0
106,0,0,9.6,2,0,685.3,371,1,0,0,1,0.594622641509434,0.16989218328840971,1.295,0
95,0,0,8.8,2,1,689.3,279,0,1,0,1,0.6585263157894736,0.22422939068100356,1.19,0
85,0,27,13.8,4,1,566.5999999999999,304,1,0,0,1,0.7210588235294116,0.20161184210526314,0.9325,0
155,1,0,11.2,1,2,610.5,271,0,1,0,1,0.3823870967741935,0.21870848708487084,3.02,0
66,0,32,12.0,3,2,449.90000000000003,320,1,0,0,1,0.7410606060606061,0.15284375,1.08,0
84,0,0,9.9,3,1,553.0,275,1,0,0,0,0.5964285714285713,0.18218181818181817,0.89,0
90,0,0,10.8,3,0,603.3,283,0,1,0,1,0.5364444444444445,0.17060070671378091,0.9733333333333333,0
81,0,0,5.2,4,1,461.1,332,0,1,0,1,0.5444444444444445,0.1328313253012048,0.35,0
114,0,0,4.6,4,2,516.0,298,0,1,0,1,0.4417543859649123,0.16899328859060403,0.31,0
33,0,0,8.4,3,2,657.7,264,1,0,0,1,2.0866666666666664,0.2608333333333333,0.7566666666666667,0
64,0,0,6.4,5,3,479.79999999999995,309,1,0,0,1,0.7003125,0.14504854368932038,0.346,0
91,0,0,9.9,3,3,518.3000000000001,296,0,1,0,1,0.6215384615384615,0.19108108108108107,0.89,0
68,0,0,15.5,5,2,493.5,229,0,0,1,1,0.6695588235294118,0.19882096069868996,0.8380000000000001,0
170,0,22,5.2,3,1,472.29999999999995,242,1,0,0,1,0.28611764705882353,0.20099173553719007,0.4666666666666666,0
92,0,0,5.6,2,3,771.8,327,0,1,0,1,0.730108695652174,0.20541284403669724,0.755,0
54,0,33,11.3,4,2,470.3,285,0,0,1,0,0.8051851851851851,0.15256140350877193,0.7625,0
72,0,0,12.7,4,2,604.3,306,0,1,0,1,0.7448611111111112,0.17526143790849677,0.8575,0
31,0,31,5.9,3,0,601.4,282,0,1,0,1,1.5948387096774193,0.1753191489361702,0.53,0
90,0,0,10.1,9,3,553.7,308,1,0,0,1,0.637888888888889,0.18639610389610392,0.30333333333333334,0
135,1,0,12.7,6,3,572.9,339,1,0,0,1,0.4174074074074074,0.16622418879056047,0.5716666666666667,0
11,0,36,6.9,6,1,679.5,263,0,1,0,1,6.747272727272727,0.28220532319391634,0.31,0
52,0,0,7.8,5,3,698.5,291,1,0,0,1,1.2732692307692306,0.22752577319587627,0.422,0
148,0,0,9.5,13,1,520.7,287,1,0,0,1,0.36074324324324325,0.18602787456445993,0.19769230769230767,0
132,0,0,5.5,4,0,818.3000000000001,265,0,1,0,1,0.5467424242424241,0.2723396226415094,0.3725,0
118,0,0,7.9,1,0,535.4,327,0,1,0,1,0.41635593220338984,0.15024464831804282,2.13,0
65,0,0,8.5,13,3,622.8,242,0,1,0,1,0.9215384615384614,0.24752066115702476,0.1769230769230769,0
101,0,24,13.0,9,2,451.90000000000003,271,0,1,0,1,0.4065346534653465,0.15151291512915127,0.38999999999999996,0
127,0,25,7.3,5,0,696.0,271,0,0,1,1,0.5313385826771653,0.24900369003690034,0.394,0
76,0,0,8.2,5,3,642.0,352,0,1,0,1,0.8588157894736843,0.1854261363636364,0.442,0
149,1,28,8.8,3,5,439.0,276,0,1,0,1,0.28382550335570467,0.1532246376811594,0.7933333333333333,1
146,1,0,9.8,4,1,641.4,350,0,0,1,1,0.3993150684931507,0.16657142857142856,0.6625,0
132,0,0,10.2,4,1,563.1,314,0,1,0,1,0.42113636363636364,0.17703821656050955,0.6875,0
98,0,0,8.9,2,1,554.6,225,0,0,1,1,0.5186734693877552,0.22591111111111115,1.2,0
132,0,0,9.1,4,2,597.0999999999999,332,0,1,0,1,0.4448484848484848,0.17686746987951807,0.615,0
121,0,0,13.3,9,0,554.2,289,0,1,0,1,0.4220661157024793,0.1767128027681661,0.39888888888888885,0
104,0,0,11.3,1,2,751.4,332,0,1,0,0,0.7194230769230769,0.22536144578313255,3.05,0
104,0,0,10.6,5,3,787.4000000000001,277,0,1,0,1,0.6988461538461539,0.26238267148014444,0.572,0
142,0,0,10.4,6,4,617.4,302,0,1,0,1,0.4515492957746479,0.212317880794702,0.4683333333333333,0
118,0,0,9.7,7,2,649.5,308,0,1,0,1,0.5840677966101694,0.22376623376623372,0.3742857142857143,0
69,1,33,8.2,2,1,690.3,285,0,0,1,1,1.0889855072463765,0.2636491228070175,1.105,1
64,1,0,12.5,3,3,533.6,243,0,1,0,1,0.75453125,0.19872427983539095,1.1266666666666667,0
192,0,0,12.7,6,4,674.1999999999999,234,0,1,0,1,0.36166666666666664,0.29675213675213674,0.5716666666666667,0
49,0,0,10.6,4,1,697.9,289,1,0,0,1,1.4487755102040818,0.24564013840830454,0.715,0
193,0,0,12.4,9,3,582.0,314,0,1,0,1,0.3074093264248705,0.18894904458598727,0.37222222222222223,0
111,0,23,12.3,4,1,479.1,296,0,1,0,1,0.3717117117117117,0.13939189189189188,0.83,0
163,0,40,12.3,3,2,712.2,221,1,0,0,1,0.4263803680981595,0.31447963800904977,1.1066666666666667,0
161,0,0,13.4,6,1,626.5999999999999,288,0,1,0,1,0.3736024844720497,0.20885416666666667,0.6033333333333334,0
55,0,28,8.6,6,2,490.2,282,0,1,0,1,0.7839999999999999,0.1529078014184397,0.38666666666666666,0
93,0,0,8.5,6,2,639.6999999999999,329,0,1,0,1,0.6321505376344085,0.17869300911854102,0.3833333333333333,0
64,0,27,12.3,3,1,495.3,317,0,1,0,1,0.8312499999999999,0.16782334384858044,1.1066666666666667,0
78,0,28,10.4,3,3,496.0,314,1,0,0,1,0.5842307692307692,0.14512738853503185,0.9366666666666666,0
98,1,0,2.1,4,1,609.2,230,0,0,1,1,0.606938775510204,0.2586086956521739,0.1425,0
74,0,38,14.8,5,2,642.4,273,0,1,0,1,0.8437837837837837,0.2287179487179487,0.8,0
86,0,0,6.2,3,2,599.7,317,1,0,0,1,0.6617441860465116,0.1795268138801262,0.5566666666666666,0
88,0,0,12.9,3,2,683.8,338,0,1,0,1,0.6810227272727273,0.1773076923076923,1.16,0
146,0,19,14.6,6,1,554.8,252,1,0,0,1,0.3667808219178082,0.2125,0.6566666666666666,0
94,0,0,10.4,6,3,496.0,247,1,0,0,1,0.4825531914893617,0.1836437246963563,0.4683333333333333,0
101,1,35,11.1,3,1,621.3,304,1,0,0,1,0.588910891089109,0.19565789473684211,1.0,1
126,0,0,5.1,2,0,631.2,313,0,1,0,1,0.45555555555555555,0.18338658146964856,0.69,0
69,0,0,10.2,12,1,525.7,283,0,1,0,1,0.6759420289855073,0.16480565371024736,0.22916666666666666,0
74,0,0,9.1,2,2,682.0999999999999,308,0,1,0,1,0.9113513513513514,0.21896103896103897,1.23,0
127,0,0,8.6,3,2,376.7,301,1,0,0,1,0.31944881889763777,0.13478405315614617,0.7733333333333333,0
129,0,34,14.8,9,2,527.4,309,0,1,0,0,0.42333333333333334,0.1767313915857605,0.4444444444444444,0
131,0,0,5.2,6,2,631.6,308,0,1,0,0,0.46076335877862595,0.19597402597402597,0.2333333333333333,0
78,0,0,9.3,4,2,553.6,296,1,0,0,1,0.6893589743589743,0.1816554054054054,0.6275,0
95,0,0,12.3,5,3,596.5,278,0,0,1,1,0.592842105263158,0.20258992805755396,0.6639999999999999,0
21,0,0,11.6,5,1,706.1,280,0,1,0,1,3.437142857142857,0.2577857142857143,0.626,0
157,0,0,5.9,2,3,549.5,207,0,0,1,1,0.34394904458598724,0.2608695652173913,0.795,0
96,0,31,10.5,5,1,559.0,325,0,0,1,1,0.5822916666666667,0.172,0.568,0
162,1,0,9.2,6,2,617.0,312,0,1,0,1,0.3451851851851852,0.17923076923076925,0.41333333333333333,0
111,0,0,16.8,7,2,542.0,327,0,1,0,1,0.4188288288288288,0.14217125382263,0.6485714285714286,0
122,0,0,12.7,2,1,467.5,209,0,1,0,1,0.26770491803278684,0.15626794258373203,1.715,0
73,0,0,11.0,4,2,538.4,351,1,0,0,1,0.7352054794520548,0.15290598290598292,0.7425,0
78,0,0,10.1,3,2,595.3000000000001,302,1,0,0,1,0.7021794871794871,0.18135761589403973,0.91,0
126,0,0,11.9,1,5,333.7,303,0,1,0,1,0.22095238095238096,0.09188118811881188,3.21,0
86,0,0,11.6,4,1,698.5,313,0,1,0,1,0.8312790697674418,0.22840255591054312,0.7825,0
122,0,0,13.7,8,2,507.50000000000006,254,0,1,0,1,0.4645081967213115,0.22311023622047244,0.4625,0
131,0,0,10.1,4,1,347.1,242,0,1,0,1,0.2221374045801527,0.12024793388429753,0.6825,0
182,0,0,8.7,11,2,575.5,284,0,1,0,1,0.3029120879120879,0.19411971830985914,0.21363636363636365,0
114,0,0,13.8,2,1,541.9,268,0,1,0,1,0.47131578947368424,0.20048507462686568,1.865,0
100,0,29,8.9,3,1,596.7,309,0,1,0,1,0.6058,0.1960517799352751,0.7999999999999999,0
81,0,0,10.4,6,2,602.6,272,0,1,0,0,0.7451851851851852,0.22191176470588236,0.4683333333333333,0
82,0,0,13.2,2,1,595.8,290,0,1,0,1,0.711829268292683,0.20127586206896553,1.78,0
130,0,0,11.7,3,3,674.9,295,0,1,0,1,0.46230769230769225,0.20372881355932201,1.0533333333333335,0
91,0,0,11.1,3,1,506.09999999999997,289,0,0,1,1,0.4845054945054945,0.152560553633218,1.0,0
64,0,43,8.5,6,1,420.6,299,0,1,0,1,0.6170312499999999,0.1320735785953177,0.3833333333333333,0
103,0,0,12.9,2,2,565.1,318,0,1,0,1,0.48262135922330096,0.15632075471698115,1.74,0
58,0,0,7.9,3,0,527.5,268,1,0,0,1,0.9006896551724138,0.19492537313432837,0.71,0
110,0,0,13.5,4,1,543.3,270,1,0,0,1,0.5138181818181818,0.20933333333333334,0.9125,0
82,0,0,10.1,3,4,654.5,324,0,0,1,0,0.7826829268292683,0.19808641975308644,0.91,0
134,0,0,10.9,7,2,581.9,305,0,1,0,1,0.4755223880597015,0.20891803278688525,0.42,0
92,0,0,9.2,4,2,460.4,299,1,0,0,0,0.4340217391304348,0.13354515050167223,0.62,0
130,0,0,9.0,1,1,624.6,292,0,1,0,0,0.44284615384615383,0.19715753424657534,2.43,0
99,0,12,16.6,2,1,545.2,340,1,0,0,0,0.4951515151515151,0.1441764705882353,2.24,0
47,0,0,10.8,8,1,337.6,280,0,1,0,0,0.712340425531915,0.11957142857142859,0.365,0
24,0,0,16.2,2,0,536.9,397,0,1,0,1,2.4266666666666663,0.14670025188916874,2.185,0
71,0,0,8.1,7,3,511.70000000000005,314,0,1,0,1,0.6709859154929577,0.15171974522292994,0.31285714285714283,0
120,0,0,8.3,8,1,601.4,269,1,0,0,1,0.5030833333333333,0.22442379182156136,0.28,0
137,0,0,10.5,3,3,503.2,254,0,0,1,1,0.3313138686131387,0.1787007874015748,0.9466666666666667,0
66,0,0,7.8,2,1,573.0,312,0,1,0,1,0.7869696969696971,0.166474358974359,1.055,0
79,0,31,12.2,8,3,422.5,317,0,0,1,0,0.5269620253164556,0.13132492113564667,0.41125,0
128,0,34,16.0,6,1,576.4000000000001,233,1,0,0,1,0.40249999999999997,0.22111587982832617,0.7200000000000001,0
84,0,0,14.3,3,3,702.9,299,0,1,0,1,0.8439285714285715,0.2370903010033445,1.2866666666666666,0
81,0,0,11.9,4,1,499.0,276,0,1,0,1,0.6290123456790124,0.18460144927536232,0.8025,0
155,0,0,15.1,4,2,525.9,304,1,0,0,1,0.3367096774193548,0.17167763157894736,1.02,0
145,0,31,10.7,1,2,675.8,326,1,0,0,0,0.45799999999999996,0.2037116564417178,2.89,0
70,0,24,9.8,4,1,731.9,267,0,1,0,1,1.0644285714285715,0.27906367041198504,0.6625,0
105,0,0,11.7,4,3,509.6,279,0,0,1,0,0.4130476190476191,0.15544802867383514,0.79,0
137,1,0,14.2,4,0,677.4,268,1,0,0,1,0.49058394160583935,0.2507835820895522,0.9575,0
109,0,0,9.9,2,1,638.8,364,0,1,0,1,0.5524770642201835,0.16543956043956043,1.335,0
67,0,0,8.1,3,3,623.9,324,0,1,0,1,0.9868656716417911,0.20407407407407407,0.73,0
64,1,0,17.3,9,1,473.1,353,0,1,0,1,0.8403125,0.1523512747875354,0.5188888888888888,0
52,0,21,5.3,3,2,459.29999999999995,308,0,0,1,0,0.9496153846153846,0.16032467532467534,0.4766666666666666,0
138,0,33,9.7,4,3,609.9,289,0,0,1,1,0.4172463768115942,0.1992387543252595,0.655,0
115,1,0,10.8,2,2,521.9,334,0,0,1,0,0.4134782608695652,0.14236526946107783,1.46,0
99,1,39,8.4,4,0,594.5,300,0,0,1,1,0.5489898989898989,0.18116666666666664,0.5675,1
31,0,0,11.5,6,0,546.2,251,0,1,0,1,1.5103225806451612,0.18653386454183268,0.5183333333333333,0
179,0,0,6.1,5,0,613.3,321,1,0,0,1,0.3406145251396648,0.1899376947040498,0.32999999999999996,0
13,0,0,9.7,2,4,574.1,283,0,1,0,1,4.4423076923076925,0.2040636042402827,1.31,0
222,0,0,12.2,5,1,723.4000000000001,314,0,1,0,1,0.3327027027027027,0.23522292993630572,0.658,0
148,0,33,11.3,3,1,568.1,248,1,0,0,1,0.42168918918918924,0.25165322580645166,1.0166666666666666,0
25,0,0,12.2,4,2,620.4000000000001,217,0,1,0,1,2.402,0.27672811059907837,0.8225,0
72,0,0,9.8,7,2,497.90000000000003,304,1,0,0,1,0.7066666666666667,0.16736842105263158,0.37857142857142856,0
167,0,0,10.8,6,0,591.7,290,0,1,0,1,0.30610778443113773,0.1762758620689655,0.48666666666666664,0
83,0,0,11.4,10,0,513.6,343,1,0,0,1,0.5332530120481929,0.1290379008746356,0.308,0
45,0,32,7.7,3,2,622.6,274,0,1,0,1,1.4891111111111113,0.24456204379562047,0.6933333333333334,0
46,0,0,10.2,2,3,584.9,278,0,0,1,1,1.2656521739130435,0.20942446043165466,1.375,0
108,0,0,10.6,6,0,714.1,333,0,1,0,0,0.6572222222222223,0.21315315315315317,0.4766666666666666,0
76,0,35,3.8,3,0,686.0,304,0,1,0,1,0.9371052631578948,0.2342763157894737,0.3433333333333333,0
102,0,0,10.5,3,3,700.8000000000001,288,1,0,0,1,0.7120588235294117,0.2521875,0.9466666666666667,0
93,0,0,14.2,4,1,596.2,321,0,1,0,1,0.5281720430107527,0.15302180685358258,0.9575,0
7,0,30,10.8,12,1,634.2,335,1,0,0,1,8.97857142857143,0.18761194029850747,0.24333333333333332,0
123,0,0,12.5,1,2,343.8,294,0,1,0,1,0.3179674796747967,0.13302721088435374,3.38,0
77,0,0,5.0,4,0,569.4,347,0,1,0,1,0.6993506493506494,0.15518731988472623,0.3375,0
102,1,0,12.0,8,3,615.3,237,0,0,1,1,0.6415686274509804,0.2761181434599156,0.405,0
181,1,0,14.1,3,0,547.7,264,0,1,0,1,0.27502762430939226,0.18856060606060607,1.27,0
62,0,0,0.0,0,1,519.5,248,0,1,0,1,1.0472580645161291,0.2618145161290323,0.0,0
90,0,27,12.6,6,2,516.4,280,1,0,0,0,0.5808888888888889,0.18671428571428572,0.5666666666666667,0
105,1,28,14.7,3,0,430.9,298,0,0,1,1,0.41133333333333333,0.14493288590604025,1.3233333333333335,1
63,0,25,12.2,2,1,448.1,323,1,0,0,1,0.771111111111111,0.15040247678018573,1.645,0
173,0,0,10.9,2,0,417.1,232,0,0,1,1,0.2661271676300578,0.19844827586206892,1.47,0
58,0,0,14.9,3,1,555.4,358,0,1,0,1,0.8884482758620689,0.1439385474860335,1.3399999999999999,0
66,0,36,12.1,2,1,506.9,270,0,1,0,1,0.6748484848484848,0.16496296296296295,1.635,0
130,0,0,9.2,5,2,491.79999999999995,334,0,0,1,1,0.3523846153846154,0.13715568862275448,0.496,0
90,0,0,11.7,4,2,721.0,302,1,0,0,1,0.7469999999999999,0.22261589403973506,0.79,0
126,0,0,10.7,3,0,517.9,292,0,0,1,1,0.3844444444444444,0.1658904109589041,0.9633333333333334,0
139,0,0,11.1,2,1,618.8,334,0,0,1,1,0.4619424460431654,0.1922455089820359,1.5,0
121,0,34,7.5,8,0,574.3,286,1,0,0,1,0.5384297520661158,0.2277972027972028,0.25375,0
28,0,0,14.1,6,2,661.5,258,0,0,1,1,2.2832142857142856,0.2477906976744186,0.635,0
120,0,0,14.0,2,2,679.0999999999999,277,0,1,0,1,0.5293333333333333,0.2293140794223827,1.89,0
56,0,37,8.3,2,1,604.0999999999999,309,0,0,1,1,1.0225000000000002,0.18530744336569582,1.12,0
113,0,0,4.9,5,3,612.7,301,0,1,0,1,0.567787610619469,0.21315614617940198,0.264,0
94,0,28,16.1,4,0,464.5,261,0,0,1,1,0.5806382978723404,0.20911877394636016,1.0875,0
53,0,0,9.8,2,0,688.0,336,1,0,0,1,1.389433962264151,0.21916666666666668,1.325,0
113,0,0,12.2,6,1,571.5,243,0,1,0,0,0.5173451327433628,0.24057613168724276,0.5483333333333333,0
91,0,0,8.3,3,0,654.3,314,0,0,1,1,0.636043956043956,0.18433121019108278,0.7466666666666667,0
100,0,0,7.8,8,2,460.29999999999995,292,0,0,1,1,0.4635,0.15873287671232877,0.26375,0
90,0,0,12.7,3,1,646.9,222,0,1,0,1,0.6611111111111111,0.268018018018018,1.1433333333333333,0
86,0,0,4.5,3,0,696.6,283,0,0,1,1,0.8027906976744187,0.24395759717314489,0.4066666666666667,0
134,0,0,12.3,10,0,769.2,308,0,0,1,1,0.6020149253731344,0.26191558441558443,0.33199999999999996,0
56,0,0,10.1,4,1,484.0,278,0,1,0,1,0.6796428571428572,0.1369064748201439,0.6825,0
29,0,0,9.3,2,1,584.2,289,0,1,0,1,1.7851724137931035,0.17913494809688582,1.255,0
56,0,0,10.6,6,2,645.1,303,1,0,0,1,1.1173214285714288,0.20650165016501654,0.4766666666666666,0
113,0,0,11.0,3,2,616.9,310,0,0,1,1,0.4825663716814159,0.17590322580645162,0.9900000000000001,0
155,0,0,10.8,1,2,496.3,261,1,0,0,1,0.3561290322580645,0.21149425287356322,2.92,0
67,0,0,5.8,10,3,598.0,299,0,1,0,1,0.9619402985074628,0.21555183946488296,0.157,0
25,0,0,12.6,5,2,532.5,307,0,1,0,1,1.954,0.15912052117263845,0.6799999999999999,0
165,0,0,11.9,3,0,610.0,347,0,0,1,1,0.36987878787878786,0.17587896253602306,1.07,0
182,0,0,8.0,5,2,561.5999999999999,322,0,1,0,1,0.25450549450549453,0.14385093167701862,0.43200000000000005,0
99,0,0,11.5,3,0,565.6,279,0,1,0,1,0.5618181818181819,0.19935483870967743,1.0366666666666666,0
190,0,0,14.7,1,1,599.4,288,1,0,0,1,0.2977894736842105,0.19645833333333332,3.97,0
117,0,0,7.8,10,1,591.1,280,0,1,0,1,0.5156410256410257,0.21546428571428575,0.211,0
158,0,0,11.0,6,1,552.5,291,0,0,1,1,0.3441772151898734,0.18687285223367697,0.49500000000000005,0
46,0,0,11.2,5,3,619.2,271,1,0,0,1,1.3193478260869564,0.22394833948339482,0.604,0
121,0,0,2.9,7,2,559.1,332,0,1,0,1,0.42330578512396694,0.15427710843373493,0.11142857142857143,0
174,0,0,6.2,5,3,584.6,246,1,0,0,1,0.31160919540229887,0.22040650406504064,0.33399999999999996,0
95,0,0,13.4,6,2,594.5,298,0,1,0,1,0.5762105263157895,0.18369127516778525,0.6033333333333334,0
155,1,26,11.1,3,1,497.59999999999997,333,0,1,0,1,0.3510967741935484,0.16342342342342342,1.0,1
100,0,0,10.4,3,1,537.8000000000001,234,0,1,0,1,0.5043,0.2155128205128205,0.9366666666666666,0
140,0,0,13.3,5,2,694.7,282,0,0,1,1,0.4701428571428571,0.2334042553191489,0.718,0
69,0,0,4.8,7,3,453.79999999999995,314,0,0,1,1,0.6699999999999999,0.14722929936305731,0.18571428571428572,0
104,0,0,10.6,8,3,573.9,274,0,1,0,1,0.6165384615384616,0.234014598540146,0.3575,0
165,0,0,9.3,5,1,608.0,263,1,0,0,1,0.35096969696969693,0.22019011406844105,0.502,0
53,0,0,10.7,2,3,515.1,323,0,1,0,1,1.042264150943396,0.17102167182662537,1.445,0
88,0,37,9.5,5,2,628.2,305,0,1,0,1,0.6872727272727274,0.19829508196721313,0.514,0
43,0,36,8.7,8,1,434.1,260,0,1,0,1,0.9539534883720929,0.15776923076923074,0.29375,0
90,0,0,10.9,6,0,434.70000000000005,349,1,0,0,1,0.46811111111111114,0.1207163323782235,0.49,0
99,0,0,10.6,2,0,610.9,251,0,0,1,1,0.601010101010101,0.23705179282868527,1.43,0
130,0,26,12.6,4,1,685.5,348,0,0,1,1,0.5536153846153846,0.2068103448275862,0.85,0
120,0,28,6.9,3,1,693.1,277,1,0,0,1,0.57975,0.2511552346570397,0.62,0
72,0,33,6.2,4,4,575.3,274,0,0,1,0,0.7025000000000001,0.18459854014598542,0.4175,0
67,0,34,9.2,4,0,575.0,343,0,1,0,1,0.8119402985074626,0.158600583090379,0.62,0
107,0,26,13.8,1,1,704.4,324,0,1,0,1,0.6532710280373832,0.21574074074074076,3.73,0
97,0,0,11.1,1,1,753.0,326,1,0,0,1,0.7926804123711341,0.2358588957055215,3.0,0
122,1,0,11.0,2,0,656.5,288,0,1,0,1,0.5584426229508196,0.23656249999999998,1.485,0
126,0,0,7.5,6,1,646.5,329,0,1,0,1,0.4177777777777778,0.16,0.3383333333333333,0
113,0,0,14.9,2,0,475.3,319,1,0,0,1,0.4148672566371681,0.1469592476489028,2.01,0
164,1,28,11.4,4,0,556.0,307,1,0,0,1,0.32274390243902434,0.17241042345276872,0.77,1
61,0,0,10.2,2,2,555.8,327,0,1,0,1,0.8978688524590165,0.16749235474006116,1.375,0
170,0,0,13.3,5,1,602.1,262,0,1,0,1,0.35811764705882354,0.23236641221374046,0.718,0
86,0,0,10.1,5,3,628.6,334,0,0,1,1,0.6894186046511628,0.17751497005988023,0.546,0
155,0,0,7.8,1,1,607.1,341,0,0,1,1,0.37567741935483867,0.1707624633431085,2.11,0
96,1,0,5.8,3,3,614.2,335,1,0,0,0,0.6241666666666668,0.17886567164179107,0.5233333333333333,0
96,0,0,16.6,7,2,483.3,252,0,1,0,1,0.5114583333333333,0.19484126984126984,0.64,0
110,0,0,9.9,7,1,542.5,367,0,1,0,1,0.4782727272727273,0.1433514986376022,0.3814285714285714,0
88,0,0,5.8,7,2,643.7,292,0,1,0,1,0.8254545454545454,0.24876712328767123,0.22428571428571428,0
177,0,0,8.9,8,3,716.0,228,0,1,0,1,0.4208474576271186,0.32671052631578945,0.3,0
104,0,15,8.0,3,0,521.6,302,0,0,1,1,0.4480769230769231,0.1543046357615894,0.7200000000000001,0
97,0,0,13.8,4,3,515.5,300,0,0,1,0,0.5184536082474227,0.16763333333333333,0.9325,0
29,0,0,10.4,2,1,637.2,298,0,1,0,1,1.9803448275862072,0.19271812080536915,1.405,0
178,0,22,14.3,3,1,540.2,285,0,1,0,1,0.26808988764044944,0.16743859649122805,1.2866666666666666,0
113,0,0,5.4,9,1,398.6,304,0,1,0,1,0.3192920353982301,0.11868421052631578,0.1622222222222222,0
190,0,0,7.6,3,3,668.0,278,0,1,0,1,0.33531578947368423,0.2291726618705036,0.6833333333333332,0
86,0,38,13.3,4,1,395.09999999999997,380,0,1,0,0,0.4477906976744186,0.10134210526315789,0.8975,0
16,0,0,10.8,2,0,601.5,277,0,0,1,1,3.9993750000000006,0.2310108303249098,1.46,0
67,0,0,13.5,2,2,553.1,255,0,0,1,1,0.937910447761194,0.24643137254901962,1.825,0
57,1,0,8.3,5,1,585.2,301,0,1,0,1,1.0633333333333332,0.20136212624584715,0.44800000000000006,0
93,0,21,9.8,3,1,499.4,332,0,0,1,1,0.47075268817204297,0.13186746987951806,0.8833333333333333,0
92,0,31,11.8,5,1,666.7,297,0,1,0,1,0.6759782608695651,0.20939393939393938,0.638,0
135,0,0,10.3,3,4,547.4,267,0,1,0,1,0.4570370370370371,0.2310861423220974,0.9266666666666666,0
52,0,0,9.6,5,4,647.4,317,1,0,0,1,1.3526923076923079,0.22189274447949528,0.518,0
97,0,0,14.4,4,2,427.1,309,0,1,0,1,0.39381443298969077,0.12362459546925567,0.9725,0
114,0,28,8.4,9,4,651.2,311,0,0,1,1,0.5724561403508771,0.2098392282958199,0.25222222222222224,0
76,0,0,11.4,3,2,659.7,321,0,0,1,1,0.7889473684210525,0.18679127725856695,1.0266666666666666,0
52,0,0,7.0,4,4,464.5,298,0,1,0,0,0.8771153846153846,0.1530536912751678,0.4725,0
127,1,0,13.9,5,2,720.3,278,0,0,1,1,0.5648031496062993,0.258021582733813,0.75,0
158,0,0,14.4,12,0,525.5,282,0,0,1,1,0.3729113924050633,0.20893617021276598,0.32416666666666666,0
160,0,0,13.0,3,2,592.9,316,0,1,0,1,0.36137499999999995,0.18297468354430377,1.17,0
56,0,30,12.1,3,1,493.79999999999995,316,0,1,0,1,0.8035714285714286,0.14240506329113925,1.09,0
127,1,0,6.2,4,4,494.5,341,0,1,0,1,0.3726771653543307,0.13879765395894428,0.4175,0
138,0,0,12.9,5,0,503.8,293,0,0,1,0,0.3893478260869565,0.18337883959044368,0.696,0
110,0,0,10.5,1,2,546.0,240,1,0,0,1,0.5400909090909091,0.24754166666666666,2.84,0
73,0,0,11.9,3,0,634.7,349,0,1,0,0,0.8917808219178084,0.1865329512893983,1.07,0
104,0,0,10.0,4,3,512.8,381,0,1,0,1,0.42500000000000004,0.11601049868766405,0.675,0
89,0,0,15.0,5,1,482.5,323,0,1,0,1,0.4629213483146068,0.12755417956656348,0.8099999999999999,0
88,0,0,8.2,3,4,474.29999999999995,244,0,0,1,1,0.42,0.15147540983606558,0.7366666666666667,0
112,0,0,9.4,5,3,588.9,313,0,1,0,0,0.55125,0.1972523961661342,0.508,0
148,0,0,10.9,3,1,706.5,320,0,1,0,1,0.45114864864864873,0.20865625000000004,0.98,0
116,1,0,4.9,4,2,471.79999999999995,320,0,1,0,1,0.4504310344827587,0.16328125000000002,0.33,0
55,1,0,12.9,3,0,326.0,269,0,0,1,1,0.5978181818181817,0.12223048327137545,1.16,0
162,0,0,11.4,3,2,524.3,298,0,1,0,1,0.2830864197530864,0.15389261744966443,1.0266666666666666,0
97,0,0,4.7,4,3,523.0,278,0,0,1,1,0.5925773195876288,0.20676258992805754,0.3175,0
81,1,0,17.9,3,3,535.8,263,0,1,0,1,0.6130864197530864,0.1888212927756654,1.61,0
103,1,0,6.8,3,3,474.1,270,0,0,1,1,0.4716504854368932,0.1799259259259259,0.6133333333333334,0
147,0,0,7.8,4,1,612.6,307,1,0,0,1,0.4074829931972789,0.195114006514658,0.5275,0
104,0,0,10.5,2,2,597.9000000000001,285,0,1,0,1,0.6519230769230769,0.23789473684210524,1.42,0
87,0,0,7.4,2,4,666.3,287,0,0,1,1,0.786551724137931,0.2384320557491289,1.0,0
73,0,0,11.5,6,3,495.3,260,1,0,0,0,0.6817808219178083,0.19142307692307695,0.5183333333333333,0
71,0,0,11.7,7,0,724.3,261,0,1,0,1,1.0571830985915494,0.28758620689655173,0.45142857142857146,0
185,0,29,13.8,2,2,550.1999999999999,300,1,0,0,1,0.2888648648648649,0.17813333333333334,1.865,0
27,0,0,8.2,3,2,743.3,323,0,0,1,1,2.692962962962963,0.2251083591331269,0.7366666666666667,0
59,1,31,9.1,3,1,643.0,236,0,0,1,0,1.0967796610169493,0.27419491525423734,0.82,1
131,0,0,10.2,11,2,591.0,336,0,0,1,1,0.4435114503816794,0.17291666666666666,0.25,0
142,0,22,11.1,4,2,536.4,354,0,1,0,1,0.38880281690140844,0.15596045197740113,0.75,0
77,0,0,2.0,7,1,588.6,335,0,1,0,1,0.7150649350649351,0.16435820895522388,0.07714285714285715,0
22,0,14,4.2,1,1,486.59999999999997,294,1,0,0,1,2.5300000000000002,0.18931972789115648,1.13,0
98,0,0,14.8,5,2,591.3,261,1,0,0,0,0.5775510204081633,0.2168582375478927,0.8,0
25,1,0,12.4,6,1,554.5,303,0,1,0,1,2.1524,0.1775907590759076,0.5583333333333333,0
67,0,0,4.9,3,2,590.3,342,0,0,1,0,0.8316417910447761,0.16292397660818714,0.44,0
90,0,0,11.4,9,1,398.79999999999995,265,1,0,0,1,0.3708888888888888,0.1259622641509434,0.3422222222222222,0
46,0,0,11.8,3,1,568.5999999999999,299,1,0,0,0,1.142608695652174,0.17578595317725754,1.0633333333333332,0
85,0,0,11.2,7,1,627.7,224,0,1,0,1,0.7336470588235294,0.27839285714285716,0.43142857142857144,0
133,0,0,6.0,4,0,657.4000000000001,281,0,0,1,1,0.4629323308270677,0.2191103202846975,0.405,0
61,0,0,9.0,3,1,705.2,320,0,1,0,0,1.1909836065573771,0.22703125000000002,0.81,0
34,0,26,9.5,5,2,648.9000000000001,279,0,0,1,1,1.803235294117647,0.21974910394265235,0.514,0
68,0,0,11.0,5,1,564.5,318,0,1,0,1,0.8283823529411765,0.1771383647798742,0.5940000000000001,0
94,0,0,9.7,6,1,688.3,308,0,0,1,1,0.7320212765957447,0.22340909090909092,0.4366666666666667,0
93,0,0,7.8,3,2,636.9,302,0,1,0,1,0.6774193548387096,0.20860927152317882,0.7033333333333333,0
166,0,0,15.3,5,0,641.0999999999999,299,0,0,1,1,0.37132530120481927,0.20615384615384616,0.826,0
121,0,0,9.1,9,2,493.9,292,0,1,0,0,0.35851239669421486,0.14856164383561643,0.2733333333333333,0
63,0,0,11.1,4,3,528.9,292,1,0,0,1,0.7687301587301586,0.16585616438356163,0.75,0
107,0,0,12.1,6,1,469.7,341,0,1,0,1,0.4418691588785047,0.13865102639296187,0.545,0
117,0,0,13.8,2,1,652.7,334,1,0,0,0,0.4908547008547008,0.17194610778443112,1.865,0
92,1,0,9.3,5,0,623.8000000000001,279,0,1,0,1,0.7342391304347826,0.24211469534050178,0.502,0
122,0,0,11.2,5,2,559.6,375,0,1,0,0,0.4258196721311476,0.13853333333333334,0.604,0
90,0,0,4.6,4,1,542.8,315,1,0,0,0,0.5253333333333333,0.1500952380952381,0.31,0
190,1,0,10.0,7,3,578.0999999999999,260,0,1,0,1,0.2574736842105263,0.18815384615384617,0.38571428571428573,0
103,0,0,12.2,4,3,607.3,333,0,0,1,1,0.5860194174757282,0.18126126126126127,0.8225,0
95,0,0,8.9,5,0,480.1,290,0,1,0,1,0.3991578947368421,0.1307586206896552,0.48,0
171,0,0,11.6,4,1,465.6,276,0,0,1,1,0.3101169590643275,0.1921376811594203,0.7825,0
105,0,0,12.7,3,2,518.8,275,1,0,0,1,0.4875238095238096,0.18614545454545456,1.1433333333333333,0
122,0,0,9.3,3,1,476.70000000000005,245,1,0,0,1,0.385,0.1917142857142857,0.8366666666666666,0
115,0,0,6.9,6,1,683.5,340,0,1,0,1,0.6502608695652174,0.21994117647058825,0.31,0
90,0,0,11.4,3,2,403.9,357,0,1,0,1,0.394,0.09932773109243698,1.0266666666666666,0
88,1,0,7.2,2,4,772.8,253,0,1,0,0,0.8436363636363636,0.2934387351778656,0.97,0
53,0,22,6.0,2,0,493.6,360,0,1,0,1,0.7277358490566038,0.1071388888888889,0.81,0
94,0,0,13.4,2,0,490.7,337,0,1,0,1,0.5042553191489362,0.1406528189910979,1.81,0
111,0,0,11.6,4,0,724.0,293,1,0,0,1,0.6621621621621622,0.2508532423208191,0.7825,0
115,0,0,14.1,4,2,394.20000000000005,302,0,0,1,1,0.3130434782608696,0.11920529801324503,0.9525,0
73,0,0,15.2,3,2,571.2,373,0,0,1,1,0.7521917808219177,0.1472117962466488,1.3666666666666665,0
19,0,29,10.0,4,0,437.90000000000003,219,0,1,0,1,2.249473684210526,0.19515981735159815,0.675,0
100,0,0,8.1,2,2,596.4000000000001,364,0,0,1,1,0.6441,0.17695054945054944,1.095,0
103,1,0,12.1,2,1,705.7,350,0,0,1,1,0.6735922330097088,0.19822857142857145,1.635,0
108,0,34,9.6,3,4,593.7,276,0,0,1,1,0.49861111111111106,0.1951086956521739,0.8633333333333333,0
112,0,17,9.7,3,0,592.7,315,0,1,0,1,0.5328571428571428,0.18946031746031744,0.8733333333333334,0
109,0,0,11.9,5,0,737.0,260,0,1,0,1,0.6442201834862386,0.27007692307692305,0.642,0
130,0,12,8.7,5,0,565.9,295,0,1,0,1,0.40276923076923077,0.1774915254237288,0.47000000000000003,0
118,0,0,6.6,6,0,355.1,359,0,1,0,1,0.27296610169491525,0.08972144846796658,0.2966666666666667,0
73,0,0,10.8,13,1,724.0,372,0,1,0,1,0.9602739726027396,0.18844086021505374,0.2246153846153846,0
34,0,0,10.0,4,2,718.5,258,0,0,1,1,1.7420588235294114,0.22957364341085268,0.675,0
134,0,32,16.6,3,0,451.0,335,1,0,0,1,0.286044776119403,0.11441791044776119,1.4933333333333334,0
140,0,0,10.5,2,1,510.6,319,0,1,0,0,0.30378571428571427,0.1333228840125392,1.42,0
103,0,29,13.7,6,1,832.3,327,1,0,0,1,0.8133980582524273,0.25620795107033645,0.6166666666666667,0
73,0,0,10.9,5,1,779.9999999999999,315,1,0,0,1,1.0854794520547943,0.25155555555555553,0.588,0
71,0,49,7.8,4,1,474.70000000000005,327,0,1,0,1,0.702112676056338,0.1524464831804281,0.5275,0
99,0,0,10.5,6,1,440.4,255,0,1,0,1,0.41656565656565653,0.1617254901960784,0.47333333333333333,0
84,0,0,11.9,2,2,565.7,243,0,1,0,1,0.7169047619047619,0.24781893004115227,1.605,0
103,0,0,12.0,6,2,374.20000000000005,410,0,1,0,1,0.30174757281553394,0.07580487804878049,0.54,0
96,0,0,9.1,7,1,666.0999999999999,307,0,1,0,1,0.6584374999999999,0.20589576547231267,0.3514285714285714,0
163,0,0,12.5,7,1,416.0,334,0,1,0,1,0.23656441717791413,0.11544910179640719,0.4828571428571428,0
25,0,0,9.6,4,2,404.7,241,1,0,0,1,1.9212,0.19929460580912864,0.6475,0
167,0,0,11.2,5,1,433.0,284,1,0,0,1,0.23377245508982036,0.13746478873239437,0.604,0
63,0,33,12.2,4,1,760.8,255,0,1,0,1,1.1073015873015872,0.2735686274509804,0.8225,0
126,0,27,9.6,3,2,452.29999999999995,300,1,0,0,1,0.40642857142857136,0.1707,0.8633333333333333,0
97,0,43,8.3,5,3,603.6999999999999,320,0,1,0,1,0.5435051546391753,0.16475,0.44800000000000006,0
135,0,27,12.3,6,1,673.2,352,0,0,1,1,0.5231851851851852,0.2006534090909091,0.5533333333333333,0
63,0,0,9.4,4,3,568.3,322,1,0,0,1,0.9133333333333333,0.17869565217391303,0.635,0
36,0,25,9.1,2,1,543.0,251,0,0,1,1,1.479166666666667,0.2121513944223108,1.23,0
135,0,45,9.4,6,0,644.4,284,0,1,0,1,0.4994814814814814,0.2374295774647887,0.42333333333333334,0
86,0,41,9.5,3,0,585.9,293,0,0,1,1,0.5865116279069768,0.17215017064846416,0.8566666666666666,0
129,0,0,11.1,4,1,487.4,371,0,1,0,1,0.3024806201550388,0.10517520215633425,0.75,0
87,0,21,10.6,5,0,528.5,309,0,1,0,1,0.6635632183908047,0.1868284789644013,0.572,0
98,1,23,10.8,7,1,722.2,227,0,1,0,1,0.7642857142857143,0.3299559471365639,0.41714285714285715,1
164,0,0,7.3,3,3,574.5,289,0,0,1,1,0.365,0.2071280276816609,0.6566666666666666,0
115,0,29,11.5,2,1,614.0999999999999,277,0,0,1,1,0.5484347826086957,0.2276895306859206,1.555,0
120,0,0,11.9,2,0,570.2,252,0,1,0,0,0.43550000000000005,0.2073809523809524,1.605,0
159,0,0,11.6,4,1,561.2,301,0,1,0,0,0.3420754716981132,0.18069767441860465,0.7825,0
93,0,22,11.7,2,0,736.2,313,1,0,0,1,0.849247311827957,0.252332268370607,1.58,0
116,0,0,8.0,3,0,665.6,322,0,0,1,1,0.5288793103448276,0.19052795031055902,0.7200000000000001,0
187,0,25,11.7,6,3,544.9,252,0,0,1,1,0.29352941176470587,0.2178174603174603,0.5266666666666667,0
78,0,27,13.0,4,3,438.1,281,0,1,0,1,0.5637179487179487,0.15647686832740212,0.8775,0
137,0,0,12.2,5,0,527.2,328,0,1,0,0,0.43065693430656937,0.17987804878048783,0.658,0
150,0,0,12.2,2,4,507.1,271,0,1,0,1,0.3218,0.1781180811808118,1.645,0
116,0,0,7.5,4,2,618.5,300,0,0,1,1,0.5094827586206896,0.19699999999999998,0.5075,0
90,0,0,12.5,6,2,637.3,325,0,1,0,0,0.6763333333333333,0.18729230769230767,0.5633333333333334,0
182,0,0,6.5,4,0,556.0999999999999,319,0,1,0,1,0.23560439560439558,0.13442006269592474,0.44,0
71,0,0,11.3,2,0,492.7,343,0,1,0,1,0.7750704225352113,0.16043731778425657,1.525,0
158,0,19,10.1,3,0,557.8,257,0,1,0,1,0.31936708860759494,0.19634241245136186,0.91,0
90,0,30,8.2,2,0,613.4000000000001,283,0,1,0,1,0.6384444444444445,0.20303886925795056,1.105,0
37,0,0,12.0,2,2,654.3,324,0,1,0,1,1.81,0.20669753086419754,1.62,0
93,1,0,11.1,2,1,506.8,287,0,0,1,0,0.5163440860215054,0.16731707317073172,1.5,0
133,0,0,10.0,8,2,566.5999999999999,301,0,0,1,1,0.41000000000000003,0.18116279069767444,0.3375,0
61,0,0,13.3,4,2,386.79999999999995,255,0,0,1,1,0.550983606557377,0.13180392156862744,0.8975,0
94,0,0,11.4,3,1,604.1,252,1,0,0,1,0.5754255319148935,0.21464285714285714,1.0266666666666666,0
109,0,0,7.8,8,3,548.4,308,0,1,0,0,0.5168807339449542,0.18292207792207793,0.26375,0
126,0,0,12.7,4,3,678.5,296,0,1,0,1,0.5733333333333334,0.2440540540540541,0.8575,0
178,0,32,10.4,7,6,534.3,263,1,0,0,1,0.2841011235955056,0.19228136882129274,0.4014285714285714,0
80,0,0,14.7,5,3,467.20000000000005,269,0,1,0,1,0.5665,0.16847583643122677,0.794,0
96,0,0,7.4,2,1,676.9,290,1,0,0,0,0.6670833333333334,0.22082758620689658,1.0,0
44,0,25,8.0,5,1,605.7,360,0,0,1,1,1.240681818181818,0.15163888888888888,0.43200000000000005,0
92,0,38,8.9,1,1,611.9,348,1,0,0,1,0.6977173913043478,0.18445402298850574,2.4,0
163,0,30,9.0,5,5,542.6,328,0,1,0,1,0.3304907975460123,0.1642378048780488,0.48600000000000004,0
46,0,0,13.1,7,1,637.6,285,1,0,0,1,1.392391304347826,0.22473684210526315,0.5057142857142857,0
84,0,25,12.9,8,4,585.4,287,0,1,0,1,0.6054761904761905,0.17721254355400698,0.435,0
65,0,0,9.3,2,3,531.5,298,0,1,0,0,0.7595384615384615,0.1656711409395973,1.255,0
78,1,0,8.3,2,3,449.9,339,0,1,0,1,0.45974358974358975,0.10578171091445428,1.12,0
155,0,0,8.6,4,0,558.9,312,0,0,1,1,0.2981935483870968,0.14814102564102563,0.58,0
114,0,34,10.3,5,0,584.3,354,0,1,0,1,0.47763157894736846,0.15381355932203392,0.5559999999999999,0
116,0,0,12.4,4,2,496.09999999999997,297,1,0,0,1,0.3976724137931034,0.1553198653198653,0.8375,0
137,0,0,9.6,4,1,657.8000000000001,265,0,1,0,1,0.5156934306569343,0.26660377358490567,0.6475,0
129,0,31,10.3,8,2,615.4,277,0,0,1,0,0.4713953488372093,0.21953068592057762,0.3475,0
73,1,0,12.8,5,1,707.8,331,0,0,1,1,0.9404109589041096,0.20740181268882177,0.692,0
162,0,46,12.1,2,0,667.7,242,0,0,1,0,0.4054938271604938,0.2714462809917355,1.635,0
88,0,0,7.8,10,3,515.4000000000001,280,0,0,1,0,0.5395454545454546,0.1695714285714286,0.211,0
80,0,31,10.7,4,4,555.4000000000001,250,1,0,0,1,0.6916249999999999,0.22132,0.7225,0
116,0,0,8.8,5,2,463.0,269,0,1,0,1,0.35767241379310344,0.1542379182156134,0.476,0
114,0,0,8.1,6,2,664.1,329,1,0,0,0,0.5667543859649122,0.19638297872340427,0.365,0
147,1,24,8.1,4,3,780.9,345,0,1,0,1,0.4827210884353742,0.2056811594202899,0.5475,1
103,0,0,12.4,5,0,420.2,326,0,1,0,0,0.44097087378640776,0.13932515337423312,0.67,0
127,0,29,18.5,2,2,601.8000000000001,367,0,1,0,1,0.4425196850393701,0.15313351498637603,2.5,0
161,0,0,10.5,3,4,645.8,328,1,0,0,1,0.36099378881987576,0.1771951219512195,0.9466666666666667,0
170,0,0,9.8,3,2,613.3,309,0,0,1,1,0.34594117647058825,0.19032362459546925,0.8833333333333333,0
81,0,36,11.7,6,3,607.5,305,0,1,0,1,0.6332098765432099,0.16816393442622954,0.5266666666666667,0
138,1,0,0.0,0,3,503.1,305,0,1,0,1,0.4501449275362319,0.20367213114754099,0.0,0
130,0,0,9.1,4,1,637.6,252,1,0,0,1,0.46207692307692305,0.23837301587301588,0.615,0
28,0,0,10.1,3,3,522.3,291,0,1,0,1,1.8210714285714285,0.17522336769759447,0.91,0
66,0,16,8.9,2,1,712.1999999999999,295,0,1,0,0,0.9571212121212122,0.21413559322033898,1.2,0
73,0,0,14.8,8,3,623.8,282,0,1,0,1,0.8771232876712329,0.2270567375886525,0.5,0
88,0,0,7.5,3,1,476.4,277,0,1,0,1,0.5709090909090909,0.18137184115523466,0.6766666666666666,0
93,0,0,11.4,10,1,579.6,276,0,0,1,1,0.6603225806451613,0.22249999999999998,0.308,0
166,0,0,9.2,5,2,503.1,315,0,1,0,1,0.32993975903614453,0.17387301587301587,0.496,0
90,0,30,11.0,1,1,626.1,302,0,1,0,1,0.6930000000000001,0.20652317880794704,2.97,0
3,0,0,6.1,3,4,675.9,294,1,0,0,1,19.273333333333333,0.19666666666666666,0.5499999999999999,0
114,1,28,14.6,4,2,497.9,256,0,0,1,1,0.40578947368421053,0.180703125,0.985,1
149,0,18,6.5,4,0,441.3,310,0,1,0,1,0.28859060402684567,0.13870967741935483,0.44,0
98,0,0,12.0,1,6,490.4,278,0,1,0,1,0.5173469387755102,0.18237410071942445,3.24,0
75,0,0,16.4,3,2,474.2,275,1,0,0,1,0.6326666666666666,0.17254545454545453,1.4766666666666666,0
96,0,27,11.3,2,1,661.6,294,0,1,0,0,0.7423958333333335,0.2424149659863946,1.525,0
110,0,0,10.2,5,1,420.7,334,1,0,0,1,0.2948181818181818,0.09709580838323353,0.55,0
102,0,0,7.1,7,0,628.5,274,0,1,0,1,0.5587254901960784,0.207992700729927,0.2742857142857143,0
67,0,0,12.5,4,1,544.5,268,0,1,0,1,0.9494029850746268,0.2373507462686567,0.845,0
147,0,35,10.1,4,2,550.5,323,0,1,0,1,0.37462585034013607,0.1704953560371517,0.6825,0
169,1,0,6.5,6,3,531.5,279,0,1,0,1,0.23100591715976332,0.13992831541218637,0.29333333333333333,0
133,0,44,14.1,7,2,607.5,280,1,0,0,1,0.4320300751879699,0.20521428571428568,0.5442857142857143,0
116,0,19,8.2,2,3,533.8,338,1,0,0,1,0.4387931034482758,0.15059171597633136,1.105,0
83,0,0,9.5,3,2,590.6,275,0,1,0,1,0.6577108433734941,0.1985090909090909,0.8566666666666666,0
100,0,26,15.9,5,1,505.0,365,0,1,0,1,0.47450000000000003,0.13,0.858,0
70,0,0,8.6,4,2,523.5,320,0,1,0,1,0.7135714285714285,0.15609374999999998,0.58,0
72,0,0,8.3,4,4,531.0,360,0,1,0,1,0.6620833333333334,0.13241666666666668,0.56,0
1,0,0,11.1,6,0,675.1,336,0,1,0,1,65.41,0.19467261904761904,0.5,0
133,0,49,12.0,4,3,621.2,299,1,0,0,1,0.49180451127819547,0.21876254180602006,0.81,0
151,0,0,7.7,6,4,585.5,367,0,0,1,1,0.36582781456953645,0.15051771117166213,0.3466666666666667,0
92,1,0,12.0,5,3,743.9000000000001,327,0,0,1,1,0.7967391304347826,0.22415902140672783,0.648,0
98,0,36,8.0,2,6,503.9,326,0,1,0,1,0.5122448979591837,0.1539877300613497,1.08,0
57,0,0,11.8,7,0,455.70000000000005,358,0,1,0,1,0.7873684210526316,0.12536312849162012,0.4557142857142857,0
100,0,0,10.2,3,0,570.1999999999999,318,0,0,1,1,0.6131,0.1927987421383648,0.9166666666666666,0
125,1,0,12.2,2,0,676.1999999999999,304,0,1,0,1,0.6284,0.25838815789473685,1.645,0
141,0,37,8.0,3,4,582.2,322,0,1,0,1,0.4007801418439716,0.17549689440993788,0.7200000000000001,0
76,1,0,12.0,7,1,702.1000000000001,271,0,1,0,0,1.0039473684210527,0.281549815498155,0.4628571428571429,0
96,0,26,11.1,2,2,560.4,285,0,1,0,1,0.5777083333333334,0.19459649122807018,1.5,0
36,0,0,7.3,2,1,569.6,318,0,0,1,1,1.5647222222222221,0.1771383647798742,0.985,0
101,0,0,4.5,15,3,691.5,278,0,1,0,1,0.7241584158415841,0.2630935251798561,0.08133333333333333,0
145,0,0,6.8,3,2,561.4000000000001,339,0,1,0,1,0.4115862068965517,0.17604719764011798,0.6133333333333334,0
61,0,27,6.4,6,4,559.8,356,0,0,1,1,0.8934426229508197,0.15308988764044945,0.28833333333333333,0
74,0,32,9.0,4,1,719.9000000000001,314,0,1,0,1,0.9005405405405406,0.21222929936305732,0.6075,0
82,0,0,8.3,4,0,494.0,303,0,1,0,0,0.5596341463414635,0.15145214521452147,0.56,0
96,0,0,10.0,7,1,596.4,266,1,0,0,1,0.5607291666666666,0.2023684210526316,0.38571428571428573,0
87,0,0,13.8,4,0,547.2,340,0,1,0,1,0.6239080459770115,0.15964705882352942,0.9325,0
157,0,0,7.9,6,1,606.2,251,0,1,0,1,0.38420382165605094,0.2403187250996016,0.355,0
115,0,0,14.6,7,1,584.0,312,0,1,0,1,0.5637391304347826,0.20778846153846153,0.5628571428571428,0
154,0,14,10.2,3,1,551.1,369,0,1,0,1,0.35818181818181816,0.1494850948509485,0.9166666666666666,0
158,0,0,10.4,6,1,560.9,296,1,0,0,1,0.3609493670886076,0.19266891891891894,0.4683333333333333,0
138,0,0,5.0,3,3,582.5,283,0,0,1,1,0.3768840579710145,0.1837809187279152,0.45,0
130,0,0,11.4,8,2,520.5,323,0,0,1,1,0.3464615384615385,0.13944272445820435,0.385,0
87,0,18,7.2,3,1,610.4,294,0,1,0,1,0.5844827586206895,0.17295918367346938,0.6466666666666666,0
90,0,0,10.1,5,2,495.20000000000005,385,0,1,0,0,0.4632222222222222,0.10828571428571428,0.546,0
89,0,0,6.3,3,3,686.8,264,0,1,0,1,0.7838202247191012,0.2642424242424243,0.5666666666666667,0
74,0,0,9.8,3,1,572.3,328,1,0,0,1,0.7344594594594595,0.16570121951219513,0.8833333333333333,0
132,0,0,11.7,4,2,588.6,359,0,1,0,1,0.42287878787878785,0.15548746518105847,0.79,0
117,0,0,6.9,5,1,591.1,243,0,1,0,1,0.5178632478632478,0.24934156378600822,0.372,0
119,0,0,10.0,1,2,567.2,298,0,0,1,1,0.4869747899159664,0.19446308724832212,2.7,0
72,0,27,7.8,4,1,620.0,283,0,1,0,1,0.7219444444444444,0.18367491166077737,0.5275,0
108,0,35,9.5,7,2,558.1,342,0,1,0,1,0.493425925925926,0.1558187134502924,0.3671428571428571,0
120,0,0,9.6,1,2,554.0,322,0,1,0,1,0.5203333333333333,0.19391304347826085,2.59,0
194,0,0,18.2,1,1,548.0,326,1,0,0,1,0.21623711340206186,0.12868098159509203,4.91,0
46,0,0,13.6,6,1,536.2,271,1,0,0,1,1.0978260869565217,0.1863468634686347,0.6116666666666667,0
157,0,0,7.5,3,5,763.2,238,0,1,0,1,0.48089171974522293,0.3172268907563025,0.6766666666666666,0
114,0,0,0.0,0,0,587.0,284,0,1,0,1,0.5031578947368421,0.20197183098591548,0.0,0
131,0,33,5.2,5,1,624.5,309,1,0,0,1,0.4427480916030534,0.18770226537216828,0.27999999999999997,0
93,0,0,10.4,2,0,653.4,305,0,1,0,1,0.6305376344086021,0.1922622950819672,1.405,0
59,0,0,10.5,4,3,505.8,304,0,1,0,1,0.7735593220338983,0.15013157894736842,0.71,0
138,1,0,11.6,4,1,636.3,292,1,0,0,1,0.501159420289855,0.23684931506849313,0.7825,0
64,0,0,11.4,5,3,607.7,309,0,0,1,1,0.9828125000000001,0.20355987055016184,0.616,0
108,0,0,4.1,4,4,514.6,308,0,1,0,1,0.41574074074074074,0.1457792207792208,0.2775,0
76,0,0,7.5,3,5,536.1,251,0,0,1,1,0.6242105263157894,0.18900398406374502,0.6766666666666666,0
87,0,0,13.2,3,1,596.6999999999999,241,0,1,0,1,0.7105747126436782,0.2565145228215768,1.1866666666666668,0
124,0,0,11.6,3,3,523.1,303,0,1,0,1,0.4065322580645161,0.16636963696369636,1.0433333333333332,0
144,1,0,9.4,15,0,626.5,263,0,1,0,1,0.40541666666666665,0.22197718631178706,0.16933333333333334,0
80,0,0,12.1,2,1,596.5999999999999,317,0,0,1,1,0.7637499999999999,0.19274447949526813,1.635,0
22,0,23,12.7,4,3,475.5,255,0,0,1,1,2.3068181818181817,0.19901960784313724,0.8575,0
122,0,0,15.9,3,3,548.3,270,0,0,1,1,0.4433606557377049,0.2003333333333333,1.43,0
83,0,33,10.2,7,0,570.9,288,0,0,1,1,0.7732530120481926,0.2228472222222222,0.39285714285714285,0
55,0,0,17.1,6,0,555.6,286,0,0,1,1,0.9701818181818181,0.18657342657342657,0.77,0
151,0,0,15.4,1,1,501.5,261,1,0,0,1,0.29874172185430464,0.1728352490421456,4.16,0
113,0,0,6.5,4,0,649.5,343,1,0,0,0,0.520353982300885,0.17142857142857143,0.44,0
127,0,19,12.2,3,2,555.5,279,0,0,1,1,0.37519685039370076,0.17078853046594983,1.0966666666666667,0
110,0,0,12.9,2,1,707.5,256,0,1,0,1,0.6503636363636363,0.27945312499999997,1.74,0
109,0,40,11.5,13,0,546.3,290,0,1,0,1,0.4633944954128441,0.17417241379310347,0.23923076923076922,0
79,0,0,14.0,6,3,615.9,380,0,0,1,1,0.7041772151898733,0.14639473684210524,0.63,0
103,0,28,7.7,4,2,551.9,281,0,1,0,1,0.49291262135922326,0.18067615658362987,0.52,0
166,1,0,10.2,2,2,521.5,318,0,1,0,1,0.32572289156626505,0.1700314465408805,1.375,0
50,0,0,5.6,9,5,498.5,311,1,0,0,0,0.9048,0.14546623794212218,0.16777777777777778,0
65,0,0,9.8,4,2,536.6,272,0,0,1,1,0.7929230769230768,0.18948529411764703,0.6625,0
41,0,37,7.3,1,2,650.8000000000001,325,1,0,0,1,1.661951219512195,0.20966153846153845,1.97,0
88,0,0,8.8,6,2,550.2,301,1,0,0,1,0.6385227272727273,0.18667774086378738,0.39666666666666667,0
85,0,0,12.8,4,1,433.1,281,1,0,0,1,0.5889411764705882,0.1781494661921708,0.865,0
82,0,29,8.8,2,2,378.00000000000006,284,0,1,0,1,0.5230487804878049,0.1510211267605634,1.19,0
107,0,0,11.7,6,0,554.4,311,0,1,0,0,0.5631775700934579,0.1937620578778135,0.5266666666666667,0
115,0,0,7.2,8,0,634.1,288,0,1,0,1,0.57,0.22760416666666666,0.2425,0
86,0,0,12.2,5,7,463.79999999999995,366,0,1,0,1,0.5208139534883721,0.12237704918032788,0.658,0
102,0,32,13.0,7,1,512.7,367,0,1,0,0,0.4773529411764706,0.13267029972752042,0.5014285714285714,0
38,0,25,13.4,6,2,582.7,332,0,1,0,1,1.488684210526316,0.17039156626506027,0.6033333333333334,0
138,0,0,10.3,7,2,667.3,274,1,0,0,1,0.45137681159420295,0.22733576642335768,0.39714285714285713,0
69,0,40,12.5,6,1,427.29999999999995,282,0,0,1,1,0.5118840579710145,0.12524822695035462,0.5633333333333334,0
113,0,23,10.2,5,2,515.6,220,0,1,0,1,0.48592920353982305,0.2495909090909091,0.55,0
100,0,0,7.3,1,2,475.40000000000003,321,0,1,0,1,0.5791000000000001,0.18040498442367603,1.97,0
161,0,0,9.2,2,1,780.5,314,1,0,0,0,0.47459627329192544,0.24334394904458598,1.24,0
112,0,0,12.2,8,1,588.0,248,1,0,0,1,0.47455357142857146,0.21431451612903227,0.41125,0
115,0,0,4.8,2,3,828.6,245,0,1,0,1,0.7022608695652174,0.3296326530612245,0.65,0
101,0,42,9.5,3,0,550.5,256,0,1,0,1,0.5673267326732674,0.22382812500000002,0.8566666666666666,0
125,0,0,10.1,3,0,697.1999999999999,241,0,1,0,0,0.57792,0.29975103734439834,0.91,0
109,0,0,7.1,4,0,555.7,268,0,1,0,1,0.49211009174311926,0.2001492537313433,0.48,0
117,0,0,9.6,8,1,566.5,297,0,1,0,1,0.5003418803418803,0.19710437710437712,0.32375,0
127,0,0,12.7,3,1,540.2,308,0,1,0,1,0.40669291338582675,0.1676948051948052,1.1433333333333333,0
99,0,0,9.8,3,2,434.4,309,1,0,0,1,0.4509090909090909,0.14446601941747572,0.8833333333333333,0
79,0,0,6.7,18,1,646.3,337,1,0,0,1,0.8021518987341772,0.18804154302670625,0.10055555555555556,0
69,0,0,14.2,7,2,530.4,347,0,1,0,1,0.8911594202898551,0.17720461095100865,0.5471428571428572,0
63,0,0,8.6,8,1,504.1,285,0,1,0,0,0.7812698412698412,0.1727017543859649,0.29,0
85,0,0,10.0,8,2,607.6,303,0,1,0,0,0.579764705882353,0.16264026402640264,0.3375,0
128,1,0,13.5,4,1,481.2,257,0,0,1,0,0.40015625,0.19929961089494164,0.9125,0
182,0,0,9.7,4,1,585.7,330,0,1,0,1,0.30423076923076925,0.1677878787878788,0.655,0
152,1,20,14.2,3,9,756.0999999999999,294,0,1,0,0,0.4858552631578947,0.2511904761904762,1.2766666666666666,1
129,0,0,10.4,6,0,717.4,305,0,0,1,1,0.6337209302325582,0.2680327868852459,0.4683333333333333,0
98,0,0,0.0,0,0,632.5,282,1,0,0,1,0.7141836734693877,0.2481914893617021,0.0,0
130,0,0,12.6,9,1,425.2,357,1,0,0,1,0.3099230769230769,0.11285714285714285,0.37777777777777777,0
105,0,0,12.0,5,3,656.9,229,0,1,0,1,0.656952380952381,0.3012227074235808,0.648,0
162,0,0,6.5,6,3,445.4,341,1,0,0,1,0.2887037037037037,0.13715542521994134,0.29333333333333333,0
161,0,0,4.0,5,1,595.7,272,0,1,0,1,0.33869565217391306,0.20047794117647058,0.21600000000000003,0
138,1,0,11.0,4,2,619.5999999999999,235,0,0,1,1,0.5155072463768116,0.30272340425531913,0.7425,0
121,0,0,7.5,4,1,578.3,297,1,0,0,1,0.47520661157024796,0.1936026936026936,0.5075,0
155,0,0,8.4,3,1,560.8,233,0,1,0,1,0.4025806451612904,0.26781115879828327,0.7566666666666667,0
48,0,0,12.3,2,2,369.8,224,1,0,0,1,0.5920833333333334,0.12687500000000002,1.66,0
139,0,0,11.4,2,1,696.2,299,0,0,1,1,0.5128057553956835,0.23839464882943145,1.54,0
83,0,30,8.7,6,3,706.3,311,0,1,0,1,0.915421686746988,0.24430868167202574,0.39166666666666666,0
95,0,0,14.0,6,0,528.8,309,1,0,0,1,0.5668421052631579,0.1742718446601942,0.63,0
130,0,0,14.3,2,1,580.3,286,0,1,0,0,0.3750769230769231,0.17048951048951047,1.93,0
102,0,0,11.1,2,2,424.7,296,0,0,1,1,0.3615686274509804,0.1245945945945946,1.5,0
159,0,0,13.4,5,0,624.7,360,1,0,0,1,0.3670440251572327,0.16211111111111112,0.724,0
142,1,25,9.8,3,0,568.5,289,1,0,0,1,0.39056338028169013,0.19190311418685121,0.8833333333333333,1
104,0,0,14.1,8,2,660.0,335,0,1,0,1,0.6607692307692308,0.20513432835820894,0.47625,0
105,0,0,13.0,4,1,639.2,292,0,0,1,1,0.6469523809523808,0.23263698630136984,0.8775,0
107,0,0,9.8,5,1,492.59999999999997,366,0,1,0,1,0.5498130841121495,0.16073770491803277,0.53,0
102,0,0,10.6,9,1,612.0,307,0,1,0,1,0.6107843137254901,0.2029315960912052,0.31777777777777777,0
113,0,0,13.6,2,1,757.0000000000001,257,0,1,0,1,0.7318584070796459,0.32178988326848246,1.835,0
53,1,0,8.9,5,0,542.8,271,0,0,1,1,0.9750943396226415,0.1907011070110701,0.48,0
95,0,0,9.7,2,0,652.3,269,0,0,1,1,0.6562105263157895,0.23174721189591077,1.31,0
83,0,0,13.2,4,1,587.2,398,1,0,0,1,0.7986746987951808,0.16655778894472364,0.89,0
85,1,0,9.6,7,2,710.5999999999999,343,1,0,0,1,0.7116470588235294,0.17635568513119534,0.37,0
158,0,0,11.6,2,1,706.5,295,0,1,0,1,0.4376582278481013,0.23440677966101697,1.565,0
79,0,0,6.3,7,1,718.4000000000001,313,0,1,0,1,0.9277215189873417,0.23415335463258782,0.24285714285714285,0
3,0,27,11.4,2,2,592.5,287,0,0,1,1,14.950000000000001,0.15627177700348432,1.54,0
128,0,0,6.4,7,0,510.29999999999995,340,0,1,0,1,0.35710937499999995,0.13444117647058823,0.24714285714285714,0
126,0,0,10.2,6,1,567.3,242,0,1,0,1,0.483015873015873,0.2514876033057851,0.4583333333333333,0
117,0,0,10.6,3,1,565.1,340,1,0,0,1,0.39905982905982906,0.1373235294117647,0.9533333333333333,0
117,0,0,11.5,3,1,539.8,307,0,1,0,1,0.43290598290598287,0.16498371335504886,1.0366666666666666,0
105,0,0,7.8,2,1,679.9,376,0,0,1,1,0.6205714285714286,0.1732978723404255,1.055,0
72,0,0,8.3,6,0,520.6,277,0,1,0,1,0.5790277777777778,0.1505054151624549,0.37333333333333335,0
98,0,0,10.4,4,2,600.9,218,1,0,0,1,0.6445918367346938,0.28977064220183485,0.7025,0
111,0,0,7.7,1,0,643.8,292,0,1,0,1,0.521981981981982,0.1984246575342466,2.08,0
90,0,0,9.8,5,1,518.5999999999999,326,0,1,0,1,0.4296666666666667,0.1186196319018405,0.53,0
67,0,0,13.1,2,0,497.4,283,0,1,0,1,0.6980597014925373,0.16526501766784452,1.77,0
21,0,0,12.1,1,0,519.2,259,1,0,0,1,2.290952380952381,0.18575289575289577,3.27,0
111,0,13,12.1,4,1,532.1,296,1,0,0,1,0.4734234234234234,0.17753378378378376,0.8175,0
136,0,24,11.0,4,4,608.6,335,0,1,0,1,0.49169117647058824,0.19961194029850748,0.7425,0
78,0,0,5.3,6,2,583.1,275,0,0,1,1,0.712948717948718,0.20221818181818182,0.2383333333333333,0
154,0,0,12.0,2,3,546.7,298,0,0,1,0,0.34084415584415584,0.17614093959731544,1.62,0
28,0,0,9.3,3,2,583.0999999999999,326,0,1,0,0,1.9596428571428572,0.16831288343558284,0.8366666666666666,0
127,1,0,13.0,3,1,635.3,310,0,1,0,1,0.5475590551181102,0.22432258064516125,1.17,0
114,0,0,12.6,5,2,532.2,295,0,1,0,1,0.43999999999999995,0.17003389830508472,0.6799999999999999,0
30,0,0,9.1,4,2,586.4,307,0,0,1,0,1.881,0.18381107491856677,0.615,0
31,0,28,11.5,2,1,702.6,312,0,1,0,1,2.1919354838709677,0.21778846153846154,1.555,0
1,0,26,8.3,3,2,550.3,285,0,0,1,1,43.49,0.15259649122807017,0.7466666666666667,0
119,0,0,8.9,1,2,548.8000000000001,314,0,0,1,0,0.37882352941176467,0.1435668789808917,2.4,0
70,0,0,5.7,4,1,674.7,264,0,1,0,1,0.9318571428571429,0.24708333333333335,0.385,0
57,1,0,6.4,1,0,482.3,236,0,0,1,0,0.7189473684210527,0.17364406779661018,1.73,0
121,0,24,7.5,7,3,779.3000000000001,314,0,0,1,1,0.6304132231404959,0.24292993630573248,0.29,0
142,0,22,8.8,2,1,611.8,318,0,0,1,1,0.43253521126760563,0.19314465408805032,1.19,0
122,0,0,11.5,6,2,558.7,285,0,1,0,1,0.4381147540983607,0.18754385964912282,0.5183333333333333,0
90,0,0,10.7,2,1,499.0,341,0,0,1,1,0.5546666666666666,0.14639296187683282,1.445,0
77,0,0,11.3,3,2,642.8,361,1,0,0,1,0.8025974025974026,0.17119113573407205,1.0166666666666666,0
48,0,0,6.7,5,4,559.8,329,0,0,1,1,1.2347916666666667,0.18015197568389058,0.362,0
202,0,0,14.6,3,3,677.9000000000001,294,0,1,0,1,0.30217821782178217,0.20761904761904762,1.3133333333333332,0
108,0,32,9.1,6,6,508.8,317,1,0,0,1,0.4951851851851852,0.16870662460567823,0.41,0
210,0,31,10.1,7,3,654.2,287,0,1,0,1,0.35509523809523813,0.25982578397212547,0.39,0
152,0,0,11.8,5,1,478.2,293,0,0,1,1,0.3173684210526316,0.164641638225256,0.638,0
150,0,35,8.8,2,2,686.2,347,0,1,0,1,0.4109333333333333,0.17763688760806914,1.19,0
17,0,0,8.6,5,1,690.7,310,0,1,0,1,3.5205882352941176,0.19306451612903228,0.46399999999999997,0
69,0,27,16.4,3,0,787.3,269,0,0,1,1,1.143478260869565,0.2933085501858736,1.4766666666666666,0
118,0,0,5.9,4,1,509.1,334,0,1,0,1,0.37652542372881354,0.1330239520958084,0.3975,0
99,0,0,9.6,3,2,705.9000000000001,334,0,0,1,1,0.6804040404040403,0.20167664670658683,0.8633333333333333,0
75,0,0,13.3,3,4,550.4,327,0,0,1,1,0.6501333333333333,0.14911314984709478,1.1966666666666665,0
128,0,28,17.7,4,0,510.1,259,0,0,1,1,0.35000000000000003,0.17297297297297298,1.195,0
165,0,0,10.3,2,1,655.2,261,1,0,0,1,0.3395151515151515,0.21463601532567048,1.39,0
184,0,0,13.1,8,2,559.3,281,1,0,0,1,0.2786413043478261,0.18245551601423488,0.4425,0
57,0,33,11.1,11,2,651.2,274,0,1,0,1,1.1008771929824563,0.22901459854014602,0.2727272727272727,0
137,1,0,10.6,2,1,663.6,261,1,0,0,1,0.5704379562043796,0.29942528735632185,1.43,0
41,0,41,5.9,3,1,460.3,289,0,1,0,1,1.271219512195122,0.1803460207612457,0.53,0
90,0,0,14.1,1,0,711.2,335,1,0,0,1,0.6858888888888889,0.18426865671641793,3.81,0
58,0,0,12.8,5,2,474.90000000000003,305,1,0,0,1,0.8046551724137931,0.15301639344262297,0.692,0
149,0,20,11.3,3,2,684.4,314,0,1,0,1,0.48751677852348996,0.2313375796178344,1.0166666666666666,0
100,0,0,12.5,3,0,684.2,281,0,1,0,0,0.6759,0.24053380782918146,1.1266666666666667,0
112,0,0,9.1,3,4,586.0,334,0,1,0,1,0.5455357142857143,0.18293413173652695,0.82,0
124,0,0,11.6,3,2,613.0999999999999,287,0,1,0,1,0.3951612903225806,0.17073170731707318,1.0433333333333332,0
119,0,0,4.2,2,1,575.0999999999999,273,1,0,0,1,0.4810924369747899,0.2097069597069597,0.565,0
132,0,0,10.3,2,0,563.3,273,0,0,1,1,0.34318181818181814,0.16593406593406593,1.39,0
105,0,0,5.8,3,2,832.6,329,0,1,0,1,0.7931428571428571,0.2531306990881459,0.5233333333333333,0
75,1,0,8.7,9,1,757.4,293,0,1,0,0,0.9995999999999999,0.25587030716723547,0.2611111111111111,0
3,0,23,6.4,4,0,597.3,284,0,1,0,1,20.316666666666666,0.21461267605633805,0.4325,0
124,0,0,12.9,12,1,425.5,358,0,1,0,1,0.3631451612903226,0.12578212290502794,0.29,0
149,0,28,12.6,3,3,634.0,209,1,0,0,1,0.393489932885906,0.2805263157894737,1.1333333333333333,0
146,0,0,10.8,4,0,501.09999999999997,356,0,1,0,1,0.34294520547945206,0.14064606741573032,0.73,0
94,0,0,6.7,2,0,544.3000000000001,346,0,1,0,1,0.5792553191489362,0.1573699421965318,0.905,0
36,0,30,14.5,6,0,438.1,317,1,0,0,1,1.2361111111111112,0.14037854889589904,0.6533333333333333,0
149,0,0,8.8,1,1,653.2,243,1,0,0,1,0.40872483221476513,0.25061728395061733,2.38,0
126,0,31,8.7,4,0,754.4000000000001,267,0,1,0,1,0.6255555555555555,0.29520599250936325,0.5875,0
60,0,0,13.4,7,2,575.9000000000001,260,0,0,1,1,0.9811666666666667,0.22642307692307695,0.5171428571428571,0
112,0,30,13.3,7,0,359.3,308,1,0,0,1,0.27125,0.09863636363636363,0.5128571428571428,0
100,0,0,5.1,8,1,642.4,306,1,0,0,1,0.5932999999999999,0.1938888888888889,0.1725,0
74,0,0,9.7,4,2,714.1,300,1,0,0,1,1.0466216216216215,0.25816666666666666,0.655,0
140,0,0,12.3,8,4,395.9,270,0,1,0,1,0.3102142857142857,0.16085185185185186,0.415,0
108,0,0,10.0,6,2,597.5,276,0,0,1,1,0.6475925925925926,0.2534057971014493,0.45,0
110,0,0,7.1,4,1,597.4000000000001,304,0,0,1,1,0.4934545454545455,0.17855263157894738,0.48,0
58,0,0,15.0,9,3,524.0,334,1,0,0,1,0.9301724137931034,0.16152694610778445,0.44999999999999996,0
43,0,0,10.7,6,0,621.0,263,0,1,0,1,1.2546511627906978,0.20513307984790877,0.4816666666666667,0
91,0,0,7.9,7,0,483.1,236,0,1,0,1,0.3708791208791209,0.1430084745762712,0.30428571428571427,0
70,0,0,0.0,0,3,725.5999999999999,346,1,0,0,1,1.048,0.21202312138728324,0.0,0
60,0,0,11.7,4,2,788.2,292,1,0,0,0,1.3655000000000002,0.28058219178082194,0.79,0
95,0,27,11.9,3,1,646.4,311,0,0,1,1,0.5814736842105264,0.17762057877813506,1.07,0
138,0,26,15.0,3,1,610.3,301,0,0,1,1,0.4353623188405797,0.19960132890365448,1.3499999999999999,0
69,0,0,9.3,3,0,529.4,338,0,1,0,1,0.8492753623188406,0.17337278106508877,0.8366666666666666,0
81,0,0,8.7,6,2,576.3,285,0,0,1,1,0.8077777777777777,0.22957894736842102,0.39166666666666666,0
94,0,31,7.9,5,0,681.1,267,0,1,0,1,0.7241489361702127,0.25494382022471906,0.426,0
150,0,0,8.3,4,5,565.5,305,1,0,0,1,0.3463333333333333,0.170327868852459,0.56,0
146,1,0,10.5,6,1,640.2,303,0,1,0,1,0.3783561643835617,0.18231023102310231,0.47333333333333333,0
94,0,0,7.7,3,0,426.7,316,0,1,0,1,0.45734042553191484,0.13604430379746835,0.6933333333333334,0
67,0,0,10.9,4,0,625.8,308,0,1,0,1,0.8592537313432835,0.18691558441558442,0.735,0
46,0,0,13.4,5,2,722.9,265,1,0,0,0,1.6336956521739132,0.28358490566037736,0.724,0
93,0,0,6.8,3,1,541.3000000000001,304,0,1,0,1,0.5267741935483872,0.1611513157894737,0.6133333333333334,0
128,0,0,13.9,4,1,694.4,286,0,1,0,0,0.553828125,0.24786713286713286,0.9375,0
58,0,0,9.9,6,0,520.1,342,0,0,1,1,0.9832758620689656,0.1667543859649123,0.445,0
101,1,0,11.6,8,0,603.3,306,0,1,0,1,0.5824752475247524,0.19225490196078432,0.39125,0
92,0,0,8.3,5,2,533.3,269,0,1,0,1,0.5075,0.17356877323420072,0.44800000000000006,0
95,0,0,8.4,4,2,483.0,304,0,0,1,1,0.5189473684210526,0.16217105263157894,0.5675,0
110,0,0,6.3,4,3,461.79999999999995,292,0,0,1,1,0.4592727272727272,0.17301369863013696,0.425,0
83,0,0,12.4,2,3,659.1,290,0,1,0,1,0.8069879518072289,0.23096551724137931,1.675,0
70,0,0,6.7,6,1,674.1,277,0,1,0,1,0.9602857142857143,0.24267148014440432,0.3016666666666667,0
57,0,0,11.2,5,3,586.1,344,0,1,0,1,1.0007017543859649,0.16581395348837208,0.604,0
125,0,0,7.7,6,2,576.7,316,0,1,0,1,0.3832,0.15158227848101266,0.3466666666666667,0
129,0,0,4.9,10,2,613.5999999999999,308,0,1,0,1,0.48131782945736434,0.2015909090909091,0.132,0
131,0,0,10.7,2,2,633.8,298,0,0,1,1,0.5154198473282442,0.22657718120805367,1.445,0
174,0,15,12.4,9,1,654.2,367,0,1,0,1,0.3769540229885058,0.17871934604904632,0.37222222222222223,0
183,0,0,9.5,4,1,740.8,285,0,1,0,1,0.36584699453551917,0.2349122807017544,0.6425,0
122,0,33,11.8,8,4,661.1,310,0,0,1,1,0.5936065573770491,0.23361290322580647,0.39875,0
73,0,28,8.8,1,2,536.4,369,0,0,1,1,0.7461643835616438,0.1476151761517615,2.38,0
95,0,0,13.7,3,2,545.0,262,0,0,1,1,0.5968421052631578,0.216412213740458,1.2333333333333334,0
142,0,0,9.0,7,1,452.6,280,0,1,0,1,0.27999999999999997,0.142,0.34714285714285714,0
149,0,25,10.7,3,1,524.5,298,0,1,0,1,0.35899328859060403,0.17949664429530202,0.9633333333333334,0
64,0,18,10.5,2,2,578.7,265,0,1,0,1,0.9140625,0.22075471698113208,1.42,0
94,0,0,8.4,5,3,753.7,282,0,1,0,1,0.7235106382978724,0.24117021276595746,0.454,0
136,0,24,8.8,5,2,565.6,281,0,1,0,1,0.39955882352941174,0.19338078291814945,0.476,0
81,0,0,9.2,4,2,615.2,311,0,0,1,0,0.7086419753086419,0.1845659163987138,0.62,0
87,0,0,13.4,3,1,616.0999999999999,306,0,0,1,1,0.6852873563218391,0.19483660130718955,1.2066666666666668,0
64,0,37,13.3,3,1,403.9,294,0,0,1,1,0.638125,0.13891156462585036,1.1966666666666665,0
139,0,0,10.8,4,1,515.6,318,0,1,0,0,0.32496402877697844,0.14204402515723272,0.73,0
76,0,12,15.1,3,1,462.9,287,1,0,0,1,0.5347368421052632,0.141602787456446,1.36,0
60,0,0,14.2,2,1,568.4,378,1,0,0,1,0.8743333333333332,0.13878306878306876,1.915,0
52,0,31,5.7,10,3,403.1,329,1,0,0,1,0.7496153846153847,0.11848024316109423,0.154,0
51,0,0,14.9,2,0,665.0,321,0,0,1,1,1.2958823529411765,0.20588785046728972,2.01,0
80,0,0,13.1,5,0,339.29999999999995,285,0,1,0,0,0.378125,0.10614035087719298,0.708,0
32,1,0,14.8,6,2,555.1,280,0,1,0,1,1.9675,0.22485714285714287,0.6666666666666666,0
91,0,0,7.6,3,4,687.0,267,1,0,0,1,0.7552747252747253,0.25741573033707865,0.6833333333333332,0
94,0,0,10.6,2,0,758.5,237,0,1,0,1,0.8202127659574467,0.3253164556962025,1.43,0
60,0,0,7.9,4,1,545.3,322,1,0,0,1,0.8283333333333333,0.15434782608695652,0.5325,0
119,0,32,12.1,2,1,543.9,247,0,1,0,0,0.4710924369747899,0.22696356275303645,1.635,0
42,0,16,9.4,4,1,725.0999999999999,339,1,0,0,0,1.696190476190476,0.21014749262536872,0.635,0
143,0,0,8.5,7,0,674.0999999999999,341,0,1,0,1,0.4390909090909091,0.18413489736070382,0.32857142857142857,0
119,0,0,13.8,4,2,515.9,279,1,0,0,1,0.4002521008403361,0.17071684587813618,0.9325,0
79,0,31,11.5,7,1,568.4,312,0,1,0,1,0.6735443037974684,0.17054487179487182,0.4442857142857143,0
132,1,0,7.0,2,1,680.1,332,0,1,0,1,0.4386363636363636,0.17439759036144578,0.945,0
56,0,0,11.7,3,0,612.4,189,0,1,0,1,1.169107142857143,0.3464021164021164,1.0533333333333335,0
126,0,24,12.1,6,0,523.3,288,1,0,0,1,0.3423015873015873,0.14975694444444443,0.545,0
123,0,0,9.6,4,2,533.4000000000001,317,1,0,0,1,0.36065040650406505,0.13993690851735016,0.6475,0
79,0,0,12.2,4,1,622.4,271,0,1,0,1,0.7170886075949366,0.20904059040590406,0.8225,0
208,0,0,10.7,6,2,684.5,282,0,0,1,0,0.3782692307692308,0.2790070921985816,0.4816666666666667,0
124,0,0,11.8,2,2,486.40000000000003,286,0,1,0,1,0.45830645161290323,0.1987062937062937,1.595,0
16,0,0,8.4,9,1,515.9000000000001,253,0,0,1,1,3.561875,0.22525691699604744,0.25222222222222224,0
159,0,0,7.4,5,2,689.2,304,0,1,0,1,0.45962264150943394,0.24039473684210524,0.4,0
53,0,0,18.4,3,2,542.3000000000001,339,0,1,0,1,1.059622641509434,0.1656637168141593,1.6566666666666665,0
131,0,0,14.7,8,3,730.5,308,1,0,0,1,0.5319083969465649,0.22623376623376626,0.49625,0
125,0,0,13.3,7,1,580.5,312,1,0,0,1,0.40159999999999996,0.16089743589743588,0.5128571428571428,0
98,1,20,10.9,4,3,474.3,281,0,1,0,1,0.5145918367346939,0.1794661921708185,0.735,1
82,1,0,12.4,6,3,597.6,274,0,0,1,1,0.7504878048780488,0.2245985401459854,0.5583333333333333,0
88,0,0,13.8,1,2,469.6,286,1,0,0,1,0.40954545454545455,0.126013986013986,3.73,0
152,0,0,10.6,4,1,542.8000000000001,301,0,1,0,1,0.4074342105263158,0.20574750830564784,0.715,0
127,0,0,9.3,3,1,536.2,350,1,0,0,1,0.4229133858267717,0.15345714285714285,0.8366666666666666,0
162,0,0,11.6,3,1,589.0,295,1,0,0,1,0.3612962962962963,0.19840677966101694,1.0433333333333332,0
152,0,0,9.5,5,2,554.3,277,1,0,0,1,0.3288815789473684,0.18046931407942238,0.514,0
69,0,0,10.6,2,1,569.1,327,0,0,1,1,0.7544927536231885,0.15920489296636087,1.43,0
34,0,0,5.0,3,1,753.4,269,1,0,0,1,1.9908823529411763,0.251635687732342,0.45,0
41,0,0,11.1,5,1,547.1,217,0,1,0,1,1.2090243902439024,0.2284331797235023,0.6,0
83,0,36,13.3,4,0,586.1,301,0,0,1,1,0.5883132530120482,0.16222591362126246,0.8975,0
122,1,0,9.7,4,4,456.5,311,0,0,1,1,0.3761475409836066,0.14755627009646302,0.655,0
46,0,0,9.2,4,2,599.0999999999999,310,0,1,0,0,1.375,0.20403225806451614,0.62,0
57,1,30,11.4,4,2,698.5,340,1,0,0,1,1.2028070175438594,0.20164705882352937,0.77,1
48,0,34,7.6,4,1,689.6,262,0,1,0,0,1.3902083333333335,0.2546946564885496,0.5125,0
86,0,0,11.5,3,3,623.5,282,0,1,0,1,0.7404651162790699,0.22581560283687946,1.0366666666666666,0
141,0,0,7.2,8,3,574.4,370,0,1,0,1,0.4648226950354609,0.17713513513513512,0.2425,0
44,0,0,9.9,5,2,784.4000000000001,277,0,0,1,0,1.7015909090909092,0.27028880866425997,0.534,0
69,0,0,12.4,4,0,642.6,290,0,1,0,1,0.9107246376811595,0.21668965517241381,0.8375,0
72,0,0,12.0,5,2,445.2,210,0,1,0,1,0.6290277777777777,0.21566666666666667,0.648,0
172,0,0,7.1,1,3,626.6,307,0,1,0,1,0.3547674418604651,0.19876221498371335,1.92,0
54,0,0,11.5,5,1,713.5,288,0,1,0,1,1.4233333333333333,0.266875,0.622,0
97,0,0,12.6,3,2,543.3,241,0,1,0,1,0.4783505154639176,0.19253112033195022,1.1333333333333333,0
120,0,24,9.0,13,1,628.8,280,0,1,0,1,0.5511666666666667,0.2362142857142857,0.18692307692307694,0
130,0,0,3.5,6,0,634.5,252,0,0,1,1,0.4224615384615385,0.21793650793650796,0.15833333333333333,0
71,0,0,8.5,10,4,513.2,306,0,1,0,1,0.8111267605633802,0.18820261437908495,0.22999999999999998,0
91,0,0,5.9,2,0,609.5,251,1,0,0,1,0.5708791208791208,0.20697211155378484,0.795,0
62,0,0,10.3,5,1,491.79999999999995,312,1,0,0,0,0.7258064516129032,0.14423076923076922,0.5559999999999999,0
108,0,28,8.7,3,0,536.6,299,0,1,0,1,0.5375,0.19414715719063544,0.7833333333333333,0
141,0,0,9.1,7,0,570.3,330,0,1,0,0,0.4122695035460993,0.17615151515151517,0.3514285714285714,0
77,0,0,10.3,3,1,556.7,240,0,1,0,1,0.764025974025974,0.24512499999999998,0.9266666666666666,0
120,0,0,10.0,5,1,509.9,345,0,0,1,1,0.4215,0.1466086956521739,0.54,0
125,0,0,11.6,7,2,493.70000000000005,281,0,1,0,0,0.40471999999999997,0.1800355871886121,0.4471428571428571,0
18,0,0,8.2,4,1,638.8000000000001,329,1,0,0,0,3.751666666666667,0.205258358662614,0.5525,0
115,0,0,13.1,7,1,648.3,349,0,1,0,1,0.5539999999999999,0.18255014326647562,0.5057142857142857,0
101,0,0,7.7,5,0,585.3,391,0,1,0,1,0.557920792079208,0.14411764705882354,0.41600000000000004,0
138,0,0,13.2,4,1,617.0,346,0,1,0,1,0.47108695652173915,0.18789017341040465,0.89,0
78,0,0,6.9,5,0,564.9,333,1,0,0,1,0.584871794871795,0.13699699699699702,0.372,0
141,0,28,9.3,11,2,643.0999999999999,376,0,1,0,1,0.46361702127659576,0.1738563829787234,0.22818181818181815,0
118,0,0,12.8,4,0,558.4,225,1,0,0,1,0.45966101694915257,0.24106666666666668,0.865,0
123,0,0,9.8,11,1,686.0,264,0,1,0,1,0.5409756097560976,0.2520454545454546,0.2409090909090909,0
165,1,0,12.2,3,1,564.8,367,0,1,0,1,0.2796363636363636,0.12572207084468665,1.0966666666666667,0
120,0,26,7.7,3,0,736.8,314,1,0,0,1,0.6121666666666667,0.23394904458598728,0.6933333333333334,0
123,0,0,8.7,4,1,585.0999999999999,269,0,1,0,1,0.441869918699187,0.2020446096654275,0.5875,0
57,0,0,12.7,6,1,586.3,259,0,0,1,1,0.9966666666666667,0.21934362934362936,0.5716666666666667,0
181,0,40,6.3,3,2,612.2,237,0,0,1,1,0.30027624309392265,0.22932489451476795,0.5666666666666667,0
61,0,28,12.1,4,1,624.8,243,0,1,0,1,1.0960655737704919,0.2751440329218107,0.8175,0
119,0,0,14.8,1,0,488.79999999999995,249,1,0,0,1,0.38495798319327734,0.18397590361445784,4.0,0
67,0,30,12.9,3,2,637.2,306,0,0,1,1,0.9464179104477611,0.20722222222222222,1.16,0
66,0,0,10.5,3,3,393.5,266,0,1,0,1,0.5468181818181819,0.1356766917293233,0.9466666666666667,0
190,0,26,9.9,3,1,437.70000000000005,262,0,1,0,1,0.21115789473684213,0.15312977099236644,0.89,0
105,0,24,10.8,3,3,767.8,326,0,1,0,1,0.7298095238095239,0.23506134969325157,0.9733333333333333,0
41,1,31,11.3,4,0,787.7,266,1,0,0,1,1.9741463414634146,0.30428571428571427,0.7625,1
65,0,0,13.2,5,3,508.59999999999997,360,0,1,0,1,0.8584615384615385,0.155,0.712,0
90,0,29,5.8,4,1,593.1999999999999,309,1,0,0,1,0.6227777777777778,0.18139158576051778,0.3925,0
87,0,30,7.8,2,0,633.4000000000001,332,1,0,0,1,0.8044827586206896,0.21081325301204817,1.055,0
149,1,0,8.8,9,3,573.6,271,0,0,1,1,0.37731543624161074,0.2074538745387454,0.2644444444444444,0
148,0,11,12.3,1,1,800.0,316,0,1,0,1,0.5337162162162162,0.24996835443037974,3.32,0
108,0,0,9.8,3,1,542.5,331,0,0,1,1,0.4502777777777778,0.14691842900302116,0.8833333333333333,0
96,0,0,10.3,3,1,778.1999999999999,306,0,1,0,1,0.8282291666666667,0.25983660130718955,0.9266666666666666,0
110,0,0,8.5,4,2,660.8,249,0,1,0,1,0.6078181818181818,0.2685140562248996,0.575,0
75,0,17,12.9,3,4,617.2,352,0,0,1,1,0.8181333333333333,0.1743181818181818,1.16,0
112,0,0,8.6,18,1,490.50000000000006,281,0,1,0,1,0.38392857142857145,0.15302491103202848,0.1288888888888889,0
139,0,0,12.1,1,0,543.9,323,1,0,0,1,0.3393525179856115,0.1460371517027864,3.27,0
34,0,0,12.5,2,1,646.0,312,0,1,0,1,1.869705882352941,0.20375000000000001,1.69,0
116,1,0,12.6,5,3,698.7,292,0,1,0,1,0.5737931034482758,0.22794520547945207,0.6799999999999999,0
66,0,0,6.2,7,2,623.8,376,0,0,1,1,1.0199999999999998,0.17904255319148935,0.23857142857142857,0
102,0,0,11.2,5,1,519.2,291,0,0,1,1,0.4633333333333333,0.16240549828178694,0.604,0
105,0,0,10.8,5,1,594.3,276,0,0,1,1,0.5669523809523809,0.21568840579710144,0.584,0
89,0,0,5.3,3,1,876.9,298,0,0,1,1,0.9874157303370786,0.2948993288590604,0.4766666666666666,0
122,0,21,9.6,4,0,541.5,269,0,1,0,1,0.46442622950819673,0.21063197026022307,0.6475,0
65,0,0,7.5,6,1,572.8,319,1,0,0,1,0.854923076923077,0.17420062695924768,0.3383333333333333,0
119,0,0,13.0,6,3,448.4,265,0,0,1,1,0.30092436974789916,0.13513207547169812,0.585,0
149,0,0,9.0,7,1,566.5999999999999,314,0,0,1,1,0.33053691275167785,0.15684713375796178,0.34714285714285714,0
120,0,0,16.9,6,0,677.1999999999999,360,0,1,0,1,0.5257499999999999,0.17525,0.7599999999999999,0
30,0,0,5.8,10,3,487.3,314,1,0,0,1,1.5203333333333333,0.14525477707006368,0.157,0
44,0,20,11.6,3,1,509.9,395,0,1,0,1,1.2238636363636364,0.13632911392405064,1.0433333333333332,0
157,0,0,11.5,7,4,505.1,345,0,1,0,1,0.35089171974522293,0.15968115942028988,0.4442857142857143,0
73,0,0,15.1,2,1,594.5,316,1,0,0,1,0.8184931506849316,0.18908227848101267,2.04,0
193,0,17,12.3,3,1,532.0,312,1,0,0,1,0.24642487046632125,0.15243589743589744,1.1066666666666667,0
52,0,0,9.4,4,2,496.69999999999993,320,1,0,0,1,1.0678846153846153,0.17353125,0.635,0
27,0,0,9.9,3,1,347.1,263,0,0,1,1,1.2240740740740739,0.12566539923954373,0.89,0
166,1,35,8.8,7,2,701.5999999999999,381,1,0,0,1,0.35283132530120476,0.15372703412073488,0.33999999999999997,1
54,0,0,10.1,4,0,670.4,305,1,0,0,1,1.2494444444444444,0.22121311475409836,0.6825,0
107,0,32,8.2,5,1,513.7,384,0,1,0,1,0.4519626168224299,0.1259375,0.442,0
190,0,0,6.6,4,0,434.1,309,0,1,0,1,0.23426315789473684,0.1440453074433657,0.445,0
80,0,0,15.9,2,2,506.7,242,0,1,0,1,0.575625,0.19028925619834713,2.145,0
53,0,0,10.1,2,9,588.5999999999999,364,1,0,0,0,1.1390566037735848,0.16585164835164834,1.365,0
169,0,0,11.9,5,1,661.5,324,0,0,1,1,0.4096449704142011,0.2136728395061728,0.642,0
134,0,0,5.0,9,1,624.9,384,1,0,0,1,0.473134328358209,0.1651041666666667,0.15000000000000002,0
98,0,19,11.0,4,1,581.9,268,1,0,0,0,0.5011224489795918,0.18324626865671642,0.7425,0
128,0,0,7.6,7,1,693.6,243,1,0,0,1,0.48171875000000003,0.2537448559670782,0.2928571428571428,0
94,0,0,10.9,5,1,589.8,338,0,0,1,1,0.6107446808510638,0.16985207100591718,0.588,0
83,0,0,9.8,4,2,538.3,316,0,0,1,1,0.5784337349397591,0.15193037974683546,0.6625,0
65,0,0,4.2,5,4,772.9000000000001,369,0,1,0,1,1.1564615384615384,0.20371273712737129,0.22599999999999998,0
25,0,0,11.1,3,2,680.5,289,0,1,0,1,2.8304,0.24484429065743946,1.0,0
105,1,0,10.9,7,1,807.8,312,0,1,0,1,0.7783809523809524,0.26195512820512823,0.42,0
140,0,0,10.9,4,0,511.6,320,0,0,1,1,0.34950000000000003,0.15290625000000002,0.735,0
121,0,31,10.1,5,4,639.4,265,1,0,0,1,0.5507438016528926,0.2514716981132076,0.546,0
21,0,0,13.0,7,2,462.0,345,0,1,0,0,1.9147619047619044,0.11655072463768114,0.5014285714285714,0
123,1,0,6.3,6,4,506.3,331,0,1,0,1,0.3547967479674797,0.13184290030211482,0.2833333333333333,0
120,0,31,11.4,4,0,610.0,255,0,1,0,1,0.46166666666666667,0.2172549019607843,0.77,0
98,0,31,12.9,4,2,638.5999999999999,333,0,1,0,1,0.6148979591836735,0.18096096096096098,0.87,0
98,0,0,6.0,3,2,567.3,278,0,1,0,1,0.5437755102040817,0.1916906474820144,0.54,0
95,0,0,8.1,2,1,610.9,332,0,1,0,0,0.5954736842105263,0.17039156626506022,1.095,0
17,0,0,14.8,5,0,608.4,331,1,0,0,1,3.4747058823529415,0.1784592145015106,0.8,0
113,0,34,13.3,3,1,347.5,263,1,0,0,1,0.23557522123893804,0.1012167300380228,1.1966666666666665,0
134,0,32,8.6,2,0,493.0,272,0,1,0,1,0.39835820895522384,0.19624999999999998,1.16,0
95,0,0,11.8,4,4,615.3,278,1,0,0,1,0.6835789473684211,0.23359712230215826,0.7975,0
41,0,24,12.1,6,1,665.0,294,0,1,0,1,1.6795121951219512,0.23421768707482993,0.545,0
127,0,14,11.6,1,1,534.7,267,0,1,0,1,0.3838582677165354,0.18258426966292135,3.13,0
119,0,0,13.9,1,2,663.2,300,1,0,0,1,0.6059663865546219,0.24036666666666667,3.75,0
58,0,22,11.5,7,2,637.0999999999999,298,0,1,0,1,1.1420689655172416,0.2222818791946309,0.4442857142857143,0
94,0,0,9.2,2,4,630.1,280,1,0,0,1,0.6295744680851064,0.21135714285714285,1.24,0
68,1,39,11.3,5,1,685.6,301,0,1,0,1,0.8569117647058823,0.19358803986710962,0.61,1
81,0,36,4.3,2,2,548.6,322,1,0,0,1,0.662962962962963,0.16677018633540375,0.58,0
193,0,0,11.6,3,1,416.1,308,0,1,0,1,0.23512953367875644,0.14733766233766232,1.0433333333333332,0
75,0,28,2.5,5,1,534.3,360,0,0,1,1,0.7424,0.15466666666666667,0.136,0
85,1,0,3.6,7,2,551.3,288,0,0,1,0,0.6981176470588235,0.20604166666666665,0.13857142857142857,0
97,0,0,11.8,6,1,384.6,228,0,1,0,1,0.4479381443298969,0.1905701754385965,0.5316666666666666,0
102,0,0,9.8,1,2,625.5,277,0,0,1,1,0.5191176470588236,0.1911552346570397,2.65,0
98,0,38,10.7,5,2,674.4,238,0,1,0,1,0.6856122448979591,0.28231092436974786,0.5780000000000001,0
71,0,0,14.9,4,3,608.6,295,0,0,1,1,0.8423943661971831,0.20274576271186442,1.005,0
65,0,0,8.5,3,2,654.5,386,0,0,1,1,0.8844615384615385,0.1489378238341969,0.7666666666666666,0
54,0,0,11.7,3,1,661.0,386,0,1,0,0,1.2733333333333332,0.17813471502590672,1.0533333333333335,0
142,0,0,9.2,6,2,400.1,281,1,0,0,1,0.2942253521126761,0.1486832740213523,0.41333333333333333,0
78,0,0,11.8,5,2,485.9,332,0,1,0,1,0.6185897435897436,0.14533132530120482,0.638,0
102,0,0,10.9,2,1,555.3,220,0,0,1,0,0.5763725490196079,0.26722727272727276,1.47,0
91,0,0,11.7,4,5,562.6,367,0,1,0,1,0.5643956043956044,0.13994550408719345,0.79,0
46,0,0,8.6,4,2,481.40000000000003,348,0,1,0,1,0.9469565217391304,0.12517241379310343,0.58,0
116,1,0,10.6,1,7,628.2,258,1,0,0,1,0.5782758620689655,0.26,2.86,0
131,0,0,10.1,5,0,454.9,354,0,1,0,1,0.3248091603053435,0.12019774011299435,0.546,0
76,0,37,12.3,4,1,623.9000000000001,263,0,1,0,1,0.7999999999999999,0.2311787072243346,0.83,0
105,0,0,16.2,3,2,585.5,254,1,0,0,1,0.5157142857142857,0.21318897637795275,1.4566666666666668,0
90,0,0,11.8,2,2,466.4,292,0,1,0,1,0.5840000000000001,0.18000000000000002,1.595,0
136,1,0,11.8,7,1,564.8,341,1,0,0,1,0.43308823529411766,0.17272727272727273,0.4557142857142857,0
123,0,0,9.0,10,1,580.7,247,0,1,0,1,0.45934959349593496,0.22874493927125505,0.24300000000000002,0
39,0,0,7.1,2,1,488.90000000000003,286,0,0,1,1,1.2284615384615385,0.16751748251748252,0.96,0
110,0,0,8.5,4,0,771.9,259,0,0,1,1,0.7452727272727273,0.3165250965250965,0.575,0
92,0,0,7.5,4,1,504.4,286,0,0,1,0,0.619891304347826,0.19940559440559438,0.5075,0
161,0,0,9.3,2,1,603.5999999999999,282,0,1,0,1,0.36869565217391304,0.21049645390070923,1.255,0
45,0,0,10.6,3,2,443.20000000000005,270,0,0,1,1,0.9942222222222225,0.16570370370370374,0.9533333333333333,0
136,0,16,13.1,4,0,518.8000000000001,329,0,1,0,1,0.3139705882352941,0.12978723404255318,0.885,0
100,0,0,8.3,4,0,674.2,276,0,0,1,1,0.7216,0.2614492753623188,0.56,0
115,0,0,12.7,3,0,468.3,338,0,0,1,1,0.436,0.14834319526627218,1.1433333333333333,0
36,0,0,9.0,2,0,573.8,319,0,0,1,1,1.3855555555555557,0.15636363636363637,1.215,0
92,0,23,11.2,3,4,542.4,322,0,1,0,1,0.6052173913043478,0.1729192546583851,1.0066666666666666,0
78,0,0,11.2,2,2,468.70000000000005,276,0,1,0,1,0.5783333333333334,0.16344202898550728,1.51,0
118,0,0,6.8,2,0,626.1,346,0,1,0,0,0.4858474576271186,0.16569364161849712,0.92,0
2,0,27,9.3,2,1,472.7,342,0,1,0,1,22.705,0.13277777777777777,1.255,0
60,1,0,11.1,6,1,593.5,322,0,1,0,1,0.9641666666666667,0.1796583850931677,0.5,0
118,0,0,10.8,2,1,612.5,309,1,0,0,0,0.4844915254237288,0.18501618122977348,1.46,0
137,0,0,9.2,4,4,586.0,267,0,0,1,1,0.41635036496350364,0.21363295880149813,0.62,0
70,0,0,13.2,4,1,555.3000000000001,302,0,1,0,1,0.8127142857142856,0.18837748344370858,0.89,0
71,1,0,13.6,3,3,528.1,318,0,1,0,1,0.7428169014084506,0.16584905660377358,1.2233333333333334,0
98,0,0,7.3,6,2,769.7,274,0,0,1,1,0.7493877551020408,0.26802919708029194,0.3283333333333333,0
147,1,0,10.1,4,1,459.5,310,1,0,0,1,0.34183673469387754,0.1620967741935484,0.6825,0
74,0,46,10.4,2,1,713.0,305,1,0,0,1,1.0486486486486486,0.2544262295081967,1.405,0
87,0,18,12.0,4,1,631.3,288,0,0,1,1,0.6959770114942528,0.21024305555555556,0.81,0
97,0,0,12.1,9,0,737.5,254,0,1,0,1,0.7194845360824743,0.2747637795275591,0.36333333333333334,0
79,0,17,9.1,2,1,623.5,321,0,1,0,1,0.7441772151898735,0.18314641744548285,1.23,0
152,0,20,7.9,5,1,481.9,335,0,0,1,1,0.3445394736842105,0.15632835820895521,0.426,0
108,0,0,14.0,9,2,741.9000000000001,302,0,1,0,1,0.7284259259259259,0.2604966887417219,0.42,0
135,1,0,12.9,4,1,465.1,306,0,1,0,1,0.34681481481481485,0.15300653594771244,0.87,0
101,0,0,11.6,2,4,584.1,255,0,1,0,1,0.5432673267326732,0.21517647058823527,1.565,0
58,0,0,11.8,3,2,607.2,279,0,1,0,1,1.115,0.2317921146953405,1.0633333333333332,0
100,0,0,13.5,2,3,601.0,344,0,1,0,1,0.6112000000000001,0.17767441860465116,1.825,0
90,0,0,10.5,4,0,637.2,323,0,1,0,0,0.6083333333333333,0.16950464396284828,0.71,0
57,0,37,11.9,3,0,508.9,283,0,0,1,1,0.7092982456140351,0.14286219081272084,1.07,0
172,0,0,12.0,5,2,695.1,317,1,0,0,1,0.4377325581395348,0.23750788643533122,0.648,0
154,0,0,1.1,5,1,604.5,300,0,1,0,1,0.35993506493506494,0.18476666666666666,0.06,0
119,0,0,12.1,5,1,465.1,356,0,1,0,1,0.46218487394957986,0.1544943820224719,0.654,0
78,0,0,13.7,7,0,507.49999999999994,286,0,1,0,1,0.630897435897436,0.1720629370629371,0.5285714285714286,0
62,0,0,13.2,4,1,503.90000000000003,299,0,0,1,1,0.8282258064516129,0.17173913043478262,0.89,0
36,0,29,9.0,6,2,670.8,291,0,0,1,1,2.040277777777778,0.25240549828178693,0.405,0
